Division,WeightClassKg,Place,Name,Team,BodyweightKg,Best3SquatKg,Best3BenchKg,Best3DeadliftKg,TotalKg,Equipment,Event,Sex,BirthDate
Boys,51.71,DQ,Bryan Muniz,Georgetown East View,51.26,61.23,34.02,61.23,,Single-ply,SBD,M,
Boys,55.79,1,Pedro Climaco,Georgetown East View,53.52,122.47,77.11,122.47,322.05,Single-ply,SBD,M,
Boys,59.87,1,Caleb Dawkins,Waco,56.7,129.27,90.72,115.67,335.66,Single-ply,SBD,M,
Boys,67.13,1,Ladavon Springs-Hargrove,Waco,63.96,163.29,113.4,167.83,444.52,Single-ply,SBD,M,
Boys,67.13,2,Landen Marsh,Georgetown,64.23,142.88,95.25,131.54,369.68,Single-ply,SBD,M,
Boys,67.13,3,Sebastian Arredondo,Jarrell,63.96,133.81,77.11,149.69,360.61,Single-ply,SBD,M,
Boys,67.13,4,Tyler Lawson,Georgetown,61.05,122.47,77.11,154.22,353.8,Single-ply,SBD,M,
Boys,67.13,5,Nathaniel Henderson,Georgetown East View,61.69,136.08,86.18,124.74,347,Single-ply,SBD,M,
Boys,67.13,6,Jackson Coe,Georgetown East View,62.14,122.47,81.65,120.2,324.32,Single-ply,SBD,M,
Boys,67.13,7,Elijah Alexander,Georgetown East View,63.59,92.99,65.77,113.4,272.16,Single-ply,SBD,M,
Boys,67.13,8,Tyler Deanda,Georgetown,63.5,90.72,54.43,102.06,247.21,Single-ply,SBD,M,
Boys,74.84,1,Jerry Barron,Georgetown East View,69.04,163.29,117.93,167.83,449.06,Single-ply,SBD,M,
Boys,74.84,2,Daniel Farr,Jarrell,73.94,161.03,92.99,163.29,417.3,Single-ply,SBD,M,
Boys,74.84,3,Javin Salinas,Waco,74.39,129.27,106.59,181.44,417.3,Single-ply,SBD,M,
Boys,74.84,4,Ivan Diaz,Waco,70.31,181.44,95.25,136.08,412.77,Single-ply,SBD,M,
Boys,74.84,5,Anthony Alvarado,Jarrell,74.03,136.08,74.84,147.42,358.34,Single-ply,SBD,M,
Boys,74.84,6,Joseph Dovey,Georgetown,68.04,88.45,52.16,106.59,247.21,Single-ply,SBD,M,
Boys,82.1,1,Isaiah Quentin Jackson,Georgetown East View,80.74,208.65,138.35,233.6,580.6,Single-ply,SBD,M,
Boys,82.1,2,Keith Gullory,Waco,82.1,204.12,136.08,210.92,551.11,Single-ply,SBD,M,
Boys,82.1,3,Christopher Rodriguez,Waco,82.1,170.1,117.93,176.9,464.93,Single-ply,SBD,M,
Boys,82.1,4,Jacob Carruth,Jarrell,79.02,174.63,102.06,167.83,444.52,Single-ply,SBD,M,
Boys,82.1,5,Miguel Grado,Jarrell,81.19,156.49,95.25,174.63,426.38,Single-ply,SBD,M,
Boys,89.81,1,Thomas Thornburg,Georgetown East View,83.91,210.92,120.2,226.8,557.92,Single-ply,SBD,M,
Boys,89.81,2,Jiovonni Thierry-Sayfullah,Jarrell,89.81,158.76,97.52,229.06,485.34,Single-ply,SBD,M,
Boys,89.81,3,Jaxon Waters,Georgetown,82.74,188.24,104.33,172.37,464.93,Single-ply,SBD,M,
Boys,89.81,4,Aron Olague,Georgetown East View,83.82,163.29,104.33,195.04,462.66,Single-ply,SBD,M,
Boys,89.81,5,Jonathan Espinoza,Jarrell,88.9,142.88,92.99,170.1,405.97,Single-ply,SBD,M,
Boys,89.81,DQ,Mark Arnold,Jarrell,85.73,120.2,70.31,108.86,,Single-ply,SBD,M,
Boys,89.81,DQ,Santiago Hernandez,Waco,89.36,117.93,90.72,113.4,,Single-ply,SBD,M,
Boys,89.81,DQ,Darren Paul,Waco,88.9,161.03,113.4,174.63,,Single-ply,SBD,M,
Boys,99.79,1,Mack Howard,Georgetown East View,95.25,190.51,106.59,172.37,469.47,Single-ply,SBD,M,
Boys,99.79,2,Cristobal Arredondo,Jarrell,95.25,147.42,90.72,172.37,410.5,Single-ply,SBD,M,
Boys,99.79,3,Vance Herd,Georgetown East View,97.52,154.22,88.45,147.42,390.09,Single-ply,SBD,M,
Boys,99.79,DQ,Dai'Shawn Fisher,Waco,99.79,260.82,124.74,240.4,,Single-ply,SBD,M,
Boys,109.77,1,Seth Kirklin,Georgetown East View,104.33,215.46,127.01,201.85,544.31,Single-ply,SBD,M,
Boys,109.77,2,Anthony Gadison,Jarrell,102.6,195.04,133.81,213.19,542.04,Single-ply,SBD,M,
Boys,109.77,3,Andrew Mornes,Waco,105.69,129.27,77.11,149.69,356.07,Single-ply,SBD,M,
Boys,124.74,1,Josh Jett,Georgetown,123.47,238.14,147.42,226.8,612.35,Single-ply,SBD,M,
Boys,124.74,2,Cole Smith,Georgetown East View,121.56,235.87,129.27,215.46,580.6,Single-ply,SBD,M,
Boys,124.74,3,Sam Fowler #7,Georgetown,119.75,142.88,97.52,145.15,385.55,Single-ply,SBD,M,
Boys,124.74+,1,Noe Ibarra,Georgetown,159.57,294.84,174.63,233.6,703.07,Single-ply,SBD,M,
Boys,124.74+,2,Eron Ortiz,Georgetown,161.57,263.08,158.76,231.33,653.17,Single-ply,SBD,M,
Boys,124.74+,3,Joseph Kiraly,Waco,148.32,249.48,154.22,190.51,594.21,Single-ply,SBD,M,
Boys,124.74+,4,Julian Leal,Jarrell,138.35,217.72,124.74,170.1,512.56,Single-ply,SBD,M,
Boys,124.74+,5,Niky Morua,Georgetown East View,126.73,170.1,115.67,163.29,449.06,Single-ply,SBD,M,
Boys,124.74+,6,Austin Cain,Georgetown East View,127.91,142.88,83.91,147.42,374.21,Single-ply,SBD,M,
Boys,124.74+,DQ,Xamier Latchison,Waco,136.98,240.4,129.27,195.04,,Single-ply,SBD,M,
