Name,WeightClassKg,Division,Sex,AgeRange,Best3SquatKg,Best3BenchKg,Best3DeadliftKg,TotalKg,Event,Equipment,Place
Shirley Scheffler,52,Open,F,,90,50,150,290,SBD,Single-ply,1
K. Lee,52,Open,F,,60,45,92.5,197.5,SBD,Single-ply,2
L. Ruiz,52,Open,F,,57.5,30,95,182.5,SBD,Single-ply,3
J. Walker,56,Open,M,,115,60,147.5,322.5,SBD,Single-ply,1
Lisa Harper,56,Open,F,,132.5,55,127.5,315,SBD,Single-ply,2
Fred Fontanilla,56,Open,M,,92.5,77.5,135,305,SBD,Single-ply,3
T. Canlas,56,Open,M,,60,52.5,77.5,190,SBD,Single-ply,4
R. Granholt,60,Open,M,,125,102.5,165,392.5,SBD,Single-ply,1
C. Lawson,60,Open,M,,122.5,82.5,172.5,377.5,SBD,Single-ply,2
Michelle Silva,60,Open,F,,130,77.5,135,342.5,SBD,Single-ply,3
Karlai Silva,60,Open,F,,105,55,110,270,SBD,Single-ply,4
K. Silva,67.5,Open,M,,190,125,195,510,SBD,Single-ply,1
R. Uyeoka,67.5,Open,M,,132.5,122.5,200,455,SBD,Single-ply,2
Joe McCarthy,67.5,Open,M,,155,107.5,192.5,455,SBD,Single-ply,3
K. Mayeda,67.5,Open,M,,147.5,125,172.5,445,SBD,Single-ply,4
J. Summers,67.5,Open,M,,140,90,192.5,422.5,SBD,Single-ply,5
R. Pacheco,67.5,Open,M,,127.5,110,165,402.5,SBD,Single-ply,6
Lisa Beaudette,67.5,Open,F,,140,57.5,150,347.5,SBD,Single-ply,7
R. Walkins,67.5,Open,F,,105,50,117.5,272.5,SBD,Single-ply,8
Helen Zechmeister,67.5,Open,F,,57.5,35,,,SBD,Single-ply,DQ
D. Thompson,67.5,Open,M,,,,,,SBD,Single-ply,DQ
Melvin Waldrop,75,Open,M,,177.5,137.5,235,550,SBD,Single-ply,1
Jesse Couch,75,Open,M,,182.5,147.5,190,520,SBD,Single-ply,2
B. Wells,75,Open,M,,187.5,130,197.5,515,SBD,Single-ply,3
T. Osipowich,75,Open,M,,200,110,205,515,SBD,Single-ply,4
R. Moditz,75,Open,M,,175,130,207.5,512.5,SBD,Single-ply,5
J. Sanchez,75,Open,M,,180,125,182.5,487.5,SBD,Single-ply,6
Robert Exum,75,Open,M,,160,92.5,210,462.5,SBD,Single-ply,7
Art Halgren,75,Open,M,,155,95,140,390,SBD,Single-ply,8
C. Wilcox,75,Open,F,,142.5,72.5,167.5,382.5,SBD,Single-ply,9
R. Nunn,75,Open,F,,95,130,157.5,382.5,SBD,Single-ply,10
Jill Wexler,75,Open,F,,92.5,47.5,92.5,232.5,SBD,Single-ply,11
D. Brown,75,Open,M,,,,,,SBD,Single-ply,DQ
H. Castaneda,82.5,Open,M,,217.5,137.5,232.5,587.5,SBD,Single-ply,1
M. Talbot,82.5,Open,M,,215,130,240,585,SBD,Single-ply,2
Steve Walls,82.5,Open,M,,195,132.5,245,572.5,SBD,Single-ply,3
V. Kilby,82.5,Open,M,,195,155,215,565,SBD,Single-ply,4
Joe Carlson,82.5,Open,M,,175,127.5,227.5,530,SBD,Single-ply,5
B. Collins,82.5,Open,M,,162.5,137.5,227.5,527.5,SBD,Single-ply,6
B. Honeycutt,82.5,Open,M,,172.5,137.5,205,515,SBD,Single-ply,7
R. Kuiz,82.5,Open,M,,170,130,175,475,SBD,Single-ply,8
R. Hoffmann,82.5,Open,M,,160,120,190,470,SBD,Single-ply,9
A. Mejia,82.5,Open,M,,,,,,SBD,Single-ply,DQ
K. Lackey,90,Open,M,,230,147.5,277.5,655,SBD,Single-ply,1
B. Kent,90,Open,M,,192.5,142.5,245,580,SBD,Single-ply,2
William Scheffler,90,Open,M,,205,112.5,227.5,545,SBD,Single-ply,3
Phil Plath,90,Open,M,,192.5,112.5,212.5,517.5,SBD,Single-ply,4
Brian Mifsud,90,Open,M,,162.5,105,200,467.5,SBD,Single-ply,5
Dave Hunt,90,Open,M,,,,,,SBD,Single-ply,DQ
P. Sassone,90,Open,M,,197.5,,,,SBD,Single-ply,DQ
Dan Castaneda,100,Open,M,,272.5,190,252.5,715,SBD,Single-ply,1
E. Brown,100,Open,M,,190,127.5,240,557.5,SBD,Single-ply,2
S. Moreno,100,Open,M,,215,127.5,215,557.5,SBD,Single-ply,3
R. Puzar,100,Open,M,,212.5,130,212.5,555,SBD,Single-ply,4
James Lee #7,100,Open,M,,195,142.5,210,547.5,SBD,Single-ply,5
D. Ishimoto,100,Open,M,,227.5,115,205,547.5,SBD,Single-ply,6
Steve Ramsey,100,Open,M,,187.5,130,200,517.5,SBD,Single-ply,7
Ron Hudec Jr,100,Open,M,,125,152.5,202.5,480,SBD,Single-ply,8
S. Ieti,110,Open,M,,287.5,175,250,712.5,SBD,Single-ply,1
B. Castaneda,110,Open,M,,252.5,180,262.5,695,SBD,Single-ply,2
C. Anderson,110,Open,M,,245,195,250,690,SBD,Single-ply,3
Art Ramsey,125,Open,M,,192.5,190,210,592.5,SBD,Single-ply,1
Mike Sorenson,125,Open,M,,165,122.5,212.5,500,SBD,Single-ply,2
Ron Hudec Sr,125+,Open,M,,192.5,205,272.5,670,SBD,Single-ply,1
Chas Pack,125+,Open,M,,230,137.5,222.5,590,SBD,Single-ply,2
M. Tabor,125+,Open,M,,187.5,100,,,SBD,Single-ply,DQ
S. Simon,125+,Open,M,,272.5,165,,,SBD,Single-ply,DQ
Bob Caves,,Masters HW,M,40-999,212.5,137.5,267.5,617.5,SBD,Single-ply,1
Warren King,,Masters HW,M,40-999,210,120,227.5,557.5,SBD,Single-ply,2
Ron Hudec Sr,125+,Masters HW,M,40-999,192.5,205,272.5,670,SBD,Single-ply,1
G. Llacuna,,Masters HW,M,40-999,195,155,195,545,SBD,Single-ply,3
William Scheffler,90,Masters HW,M,40-999,205,112.5,227.5,545,SBD,Single-ply,1
Gordon Tornberg,,Masters HW,M,40-999,192.5,132.5,192.5,517.5,SBD,Single-ply,4
Joe Simmons,,Masters HW,M,40-999,185,122.5,200,507.5,SBD,Single-ply,5
Larry Duran,,Masters LW,M,40-999,192.5,127.5,220,540,SBD,Single-ply,1
G. Forthing,,Masters LW,M,40-999,175,142.5,197.5,515,SBD,Single-ply,2
D. West,,Masters LW,M,40-999,182.5,117.5,190,490,SBD,Single-ply,3
R. Seymour,,Masters LW,M,40-999,165,122.5,182.5,470,SBD,Single-ply,4
R. Fleckinger,,Masters LW,M,40-999,160,95,165,420,SBD,Single-ply,5
Mitch Sperling,,Masters LW,M,40-999,125,132.5,112.5,370,SBD,Single-ply,6
Alan Kirshner,,Masters LW,M,40-999,25,162.5,65,252.5,SBD,Raw,7
