Division,WeightClassKg,Place,Name,Team,BodyweightKg,Best3SquatKg,Best3BenchKg,Best3DeadliftKg,TotalKg,Equipment,Event,Sex
Boys,51.71,1,Kyle Hendrix,Weatherford,51.26,86.18,65.77,92.99,244.94,Single-ply,SBD,M
Boys,55.79,1,Arnold Delgidillo,White Settlement Brewer,55.34,131.54,83.91,142.88,358.34,Single-ply,SBD,M
Boys,55.79,2,Nick Roark-Smith,Fort Worth Chisholm Trail,53.52,122.47,47.63,124.74,294.84,Single-ply,SBD,M
Boys,55.79,3,Isaac Gonzalez,Weatherford,53.07,106.59,61.23,111.13,278.96,Single-ply,SBD,M
Boys,55.79,4,Melvin Johnson,Fort Worth Chisholm Trail,55.79,113.4,,136.08,249.48,Single-ply,SD,M
Boys,59.87,1,Nick Thomas #4,Weatherford,58.97,131.54,72.57,154.22,358.34,Single-ply,SBD,M
Boys,59.87,2,Zach Bodine,Weatherford,59.87,120.2,88.45,147.42,356.07,Single-ply,SBD,M
Boys,59.87,3,Ian Reyna,Fort Worth Chisholm Trail,59.87,127.01,61.23,124.74,312.98,Single-ply,SBD,M
Boys,59.87,4,Nick Marquez,Fort Worth Chisholm Trail,59.42,120.2,61.23,124.74,306.17,Single-ply,SBD,M
Boys,67.13,1,Chase Warren,Weatherford,63.96,142.88,92.99,156.49,392.36,Single-ply,SBD,M
Boys,67.13,2,Deven Larry,Fort Worth Chisholm Trail,66.68,156.49,68.04,158.76,383.29,Single-ply,SBD,M
Boys,67.13,3,Michael Frantzen,Fort Worth Chisholm Trail,65.32,142.88,77.11,142.88,362.87,Single-ply,SBD,M
Boys,67.13,4,Kenneth McClevland,Fort Worth Chisholm Trail,66.22,124.74,68.04,154.22,347,Single-ply,SBD,M
Boys,67.13,5,Keiler Sanchez,Fort Worth Chisholm Trail,65.32,124.74,72.57,136.08,333.39,Single-ply,SBD,M
Boys,67.13,6,Trey Ware,Weatherford,66.22,124.74,68.04,124.74,317.51,Single-ply,SBD,M
Boys,67.13,7,Travis Ward,Weatherford,60.33,115.67,70.31,115.67,301.64,Single-ply,SBD,M
Boys,74.84,1,Draven Pointer,Weatherford,73.03,163.29,113.4,181.44,458.13,Single-ply,SBD,M
Boys,74.84,2,Dusty Schauer,Weatherford,73.94,165.56,106.59,174.63,446.79,Single-ply,SBD,M
Boys,74.84,3,Lane Brown,Fort Worth Chisholm Trail,74.84,142.88,88.45,181.44,412.77,Single-ply,SBD,M
Boys,74.84,4,Jeru Sparks,Fort Worth Chisholm Trail,74.39,158.76,90.72,147.42,396.89,Single-ply,SBD,M
Boys,74.84,5,Brennan Barrs,White Settlement Brewer,74.39,122.47,88.45,165.56,376.48,Single-ply,SBD,M
Boys,74.84,6,Carlos Villalobos,White Settlement Brewer,74.39,120.2,43.09,108.86,272.16,Single-ply,SBD,M
Boys,74.84,7,Bryan Sanchez,Fort Worth Chisholm Trail,72.57,,83.91,136.08,219.99,Single-ply,BD,M
Boys,82.1,1,Richardo Camas,Weatherford,77.11,188.24,129.27,197.31,514.83,Single-ply,SBD,M
Boys,82.1,2,Robbie Carper,Weatherford,76.2,197.31,117.93,197.31,512.56,Single-ply,SBD,M
Boys,82.1,3,Kevin Perotti,White Settlement Brewer,79.38,181.44,108.86,183.7,474,Single-ply,SBD,M
Boys,82.1,4,Zach Mohr,Weatherford,79.38,172.37,111.13,183.7,467.2,Single-ply,SBD,M
Boys,82.1,5,TK Powell,Fort Worth Chisholm Trail,77.56,142.88,106.59,170.1,419.57,Single-ply,SBD,M
Boys,82.1,6,Darrell Arin,Fort Worth Chisholm Trail,81.65,156.49,77.11,158.76,392.36,Single-ply,SBD,M
Boys,82.1,7,Frank Soria,Fort Worth Chisholm Trail,78.47,142.88,68.04,165.56,376.48,Single-ply,SBD,M
Boys,89.81,1,Robbie Williams,White Settlement Brewer,89.81,206.38,122.47,204.12,532.97,Single-ply,SBD,M
Boys,89.81,2,Benji Perez,White Settlement Brewer,86.64,215.46,108.86,192.78,517.1,Single-ply,SBD,M
Boys,89.81,3,Daniel Raya,White Settlement Brewer,83.91,163.29,113.4,163.29,439.98,Single-ply,SBD,M
Boys,89.81,4,Jalen Pate,Fort Worth Chisholm Trail,89.81,174.63,88.45,158.76,421.84,Single-ply,SBD,M
Boys,89.81,5,Will O'Steen,Fort Worth Chisholm Trail,83.91,145.15,88.45,158.76,392.36,Single-ply,SBD,M
Boys,89.81,6,Jackson Fletcher,White Settlement Brewer,85.28,158.76,65.77,147.42,371.95,Single-ply,SBD,M
Boys,89.81,7,Damien Hernandez,White Settlement Brewer,83.46,165.56,,181.44,347,Single-ply,SD,M
Boys,89.81,8,Zach Bushy,White Settlement Brewer,89.81,120.2,77.11,127.01,324.32,Single-ply,SBD,M
Boys,89.81,9,Tyler Rainwater,White Settlement Brewer,85.28,156.49,,147.42,303.91,Single-ply,SD,M
Boys,99.79,1,Devlin Casillas,White Settlement Brewer,95.71,190.51,117.93,208.65,517.1,Single-ply,SBD,M
Boys,99.79,2,Tristian Raymond,Weatherford,97.98,183.7,122.47,181.44,487.61,Single-ply,SBD,M
Boys,99.79,3,Jason Washington,Weatherford,99.34,170.1,129.27,183.7,483.08,Single-ply,SBD,M
Boys,99.79,4,Jesse Roden,Weatherford,90.72,181.44,113.4,161.03,455.86,Single-ply,SBD,M
Boys,99.79,5,Victor Munoz,Weatherford,97.98,151.95,92.99,181.44,426.38,Single-ply,SBD,M
Boys,99.79,6,Adrian Gray,Fort Worth Chisholm Trail,99.34,170.1,92.99,156.49,419.57,Single-ply,SBD,M
Boys,99.79,7,Logan Molinar,White Settlement Brewer,99.79,136.08,104.33,147.42,387.82,Single-ply,SBD,M
Boys,99.79,8,Dalton Pittman,Fort Worth Chisholm Trail,99.79,158.76,,170.1,328.85,Single-ply,SD,M
Boys,109.77,1,Stephan Evans,White Settlement Brewer,103.87,219.99,129.27,192.78,542.04,Single-ply,SBD,M
Boys,109.77,2,Antoino Cansino,Weatherford,109.32,199.58,102.06,201.85,503.49,Single-ply,SBD,M
Boys,109.77,3,Trevor Harris,Weatherford,109.77,183.7,108.86,188.24,480.81,Single-ply,SBD,M
Boys,109.77,4,Bryce Waller,Weatherford,103.42,183.7,106.59,170.1,460.4,Single-ply,SBD,M
Boys,109.77,5,David Young,Weatherford,104.33,170.1,106.59,176.9,453.59,Single-ply,SBD,M
Boys,109.77,6,Fernando Monreal,White Settlement Brewer,100.7,161.03,97.52,156.49,415.04,Single-ply,SBD,M
Boys,109.77,7,Jett Reed,White Settlement Brewer,102.97,170.1,,151.95,322.05,Single-ply,SD,M
Boys,109.77,8,Ryan Shruggs,White Settlement Brewer,106.14,158.76,,140.61,299.37,Single-ply,SD,M
Boys,109.77,9,Ty Lee,Fort Worth Chisholm Trail,106.59,,92.99,181.44,274.42,Single-ply,BD,M
Boys,124.74,1,Keegan Dement,Weatherford,117.93,176.9,104.33,188.24,469.47,Single-ply,SBD,M
Boys,124.74,2,Dusty Seely,White Settlement Brewer,123.38,185.97,111.13,163.29,460.4,Single-ply,SBD,M
Boys,124.74,3,Grayson Adams,Weatherford,119.29,156.49,115.67,174.63,446.79,Single-ply,SBD,M
Boys,124.74,4,Ricky Chapa,White Settlement Brewer,123.38,199.58,,204.12,403.7,Single-ply,SD,M
Boys,124.74,5,Joseph Alfaro,White Settlement Brewer,122.92,195.04,,167.83,362.87,Single-ply,SD,M
Boys,124.74,6,Kenny Hill,Fort Worth Chisholm Trail,116.12,142.88,,151.95,294.84,Single-ply,SD,M
Boys,124.74,7,Spencer Shoff,Fort Worth Chisholm Trail,117.48,,97.52,154.22,251.74,Single-ply,BD,M
Boys,124.74,DQ,Daniel Martinez,White Settlement Brewer,118.39,,,,,Single-ply,BD,M
