Division,WeightClassKg,Place,Name,Team,BodyweightKg,Best3SquatKg,Best3BenchKg,Best3DeadliftKg,TotalKg,Equipment,Event,Sex,BirthDate
Girls,44.23,1,Annabel Rosas,Seagraves,44.18,111.13,47.63,117.93,276.69,Single-ply,SBD,F,
Girls,44.23,2,Raelee Borrego,Ozona,43.91,108.86,68.04,95.25,272.16,Single-ply,SBD,F,
Girls,44.23,3,Grace Smith,Crane,42.82,104.33,49.9,106.59,260.82,Single-ply,SBD,F,
Girls,44.23,4,Miranda Fleming,Seagraves,43.73,102.06,52.16,106.59,260.82,Single-ply,SBD,F,
Girls,44.23,5,Brayleigh McGill,Panhandle,44.18,88.45,47.63,115.67,251.74,Single-ply,SBD,F,
Girls,44.23,6,Christian Everett,Coahoma,44,88.45,45.36,102.06,235.87,Single-ply,SBD,F,
Girls,44.23,7,Zenia Florez,Kermit,43.91,88.45,52.16,92.99,233.6,Single-ply,SBD,F,
Girls,44.23,8,Aubrey Jaramillo,Clarendon,38.19,74.84,45.36,90.72,210.92,Single-ply,SBD,F,
Girls,44.23,9,Adamary Garcia,Kermit,42.09,77.11,40.82,83.91,201.85,Single-ply,SBD,F,
Girls,44.23,10,Brooklyn Williams,Hawley,42.82,79.38,38.56,72.57,190.51,Single-ply,SBD,F,
Girls,44.23,11,Angelica Aranda,Eldorado,44.18,65.77,40.82,83.91,190.51,Single-ply,SBD,F,
Girls,44.23,DQ,Kateri Masters,Mertzon Irion County,43,,,,,Single-ply,SBD,F,
Girls,47.85,1,Clarissa Jimenez,Big Lake Reagan County,47.26,136.08,70.31,117.93,324.32,Single-ply,SBD,F,
Girls,47.85,2,Andrea Cervantes,Big Lake Reagan County,47.54,133.81,52.16,124.74,310.71,Single-ply,SBD,F,
Girls,47.85,3,Roslynn Mendez,Ozona,47.45,113.4,54.43,108.86,276.69,Single-ply,SBD,F,
Girls,47.85,4,Genesis Martinez,McCamey,46.27,111.13,47.63,111.13,269.89,Single-ply,SBD,F,
Girls,47.85,5,Alice Cogburn,Slaton,46.72,99.79,54.43,113.4,267.62,Single-ply,SBD,F,
Girls,47.85,6,Serena Dobbs,Coahoma,46.36,106.59,47.63,97.52,251.74,Single-ply,SBD,F,
Girls,47.85,7,Aubrey Lopez,Crane,47.17,97.52,58.97,92.99,249.48,Single-ply,SBD,F,
Girls,47.85,8,Hannah Reyes,Lockney,47.08,92.99,54.43,92.99,240.4,Single-ply,SBD,F,
Girls,47.85,9,Grecia Almanza,Dimmitt,47.45,97.52,52.16,88.45,238.14,Single-ply,SBD,F,
Girls,47.85,10,Fette Jackson,Hedley,46.45,99.79,54.43,81.65,235.87,Single-ply,SBD,F,
Girls,47.85,DQ,Emma Rangel,Sunray,46.08,,,,,Single-ply,SBD,F,
Girls,47.85,DQ,Leslie Regalado,Muleshoe,47.36,,,,,Single-ply,SBD,F,
Girls,51.94,1,Aaliyah Portales,Big Lake Reagan County,51.71,170.1,88.45,158.76,417.3,Single-ply,SBD,F,
Girls,51.94,2,Kalissa Branch,Seagraves,51.62,145.15,52.16,149.69,347,Single-ply,SBD,F,
Girls,51.94,3,Yudith Aranda,Seagraves,51.8,120.2,77.11,122.47,319.78,Single-ply,SBD,F,
Girls,51.94,4,Evelyn Burton,Hawley,51.71,124.74,74.84,117.93,317.51,Single-ply,SBD,F,
Girls,51.94,5,Kenzee Talamantez,Ozona,50.89,127.01,61.23,122.47,310.71,Single-ply,SBD,F,
Girls,51.94,6,Aaliyah Fierro,Alpine,50.44,117.93,65.77,122.47,306.17,Single-ply,SBD,F,
Girls,51.94,7,Alyssa Aguero,Ballinger,50.89,120.2,58.97,120.2,299.37,Single-ply,SBD,F,
Girls,51.94,8,Kk Minjarez,Seagraves,51.8,115.67,63.5,106.59,285.76,Single-ply,SBD,F,
Girls,51.94,9,Evyn Winborne,Panhandle,50.08,106.59,54.43,117.93,278.96,Single-ply,SBD,F,
Girls,51.94,10,Bethany Todd,Crane,50.62,113.4,52.16,113.4,278.96,Single-ply,SBD,F,
Girls,51.94,11,Nia Williams,Colorado City Colorado,51.53,102.06,70.31,104.33,276.69,Single-ply,SBD,F,
Girls,51.94,DQ,Ashlyn Porter,Eldorado,51.07,,,,,Single-ply,SBD,F,
Girls,56.02,1,Karisa Minjarez,Seagraves,55.88,136.08,63.5,140.61,340.19,Single-ply,SBD,F,
Girls,56.02,2,Micaela Hernandez,Sundown,55.52,133.81,56.7,145.15,335.66,Single-ply,SBD,F,
Girls,56.02,3,Perla Vasquez,Muleshoe,55.25,140.61,54.43,138.35,333.39,Single-ply,SBD,F,
Girls,56.02,4,Mikah Grisham,Hawley,55.07,124.74,81.65,122.47,328.85,Single-ply,SBD,F,
Girls,56.02,5,Mia Lozano,Christoval,52.25,120.2,65.77,129.27,315.25,Single-ply,SBD,F,
Girls,56.02,6,Natali Garza,Crane,55.16,111.13,61.23,133.81,306.17,Single-ply,SBD,F,
Girls,56.02,7,Destiny Garza,Clyde,54.88,117.93,65.77,113.4,297.1,Single-ply,SBD,F,
Girls,56.02,8,Brianna Rodriguez,Seagraves,55.88,124.74,65.77,104.33,294.84,Single-ply,SBD,F,
Girls,56.02,9,Dasani Rios,Eldorado,55.97,111.13,68.04,111.13,290.3,Single-ply,SBD,F,
Girls,56.02,10,Esperanza Castillo,Ozona,54.61,111.13,56.7,111.13,278.96,Single-ply,SBD,F,
Girls,56.02,11,Avery Chacon,Merkel,54.25,95.25,54.43,111.13,260.82,Single-ply,SBD,F,
Girls,56.02,DQ,Izzy Durbin,Hawley,55.97,131.54,74.84,,,Single-ply,SBD,F,
Girls,60.1,1,Kadence Esparza,Seagraves,59.42,136.08,81.65,140.61,358.34,Single-ply,SBD,F,
Girls,60.1,2,Cailey Glover,Coahoma,58.79,149.69,68.04,138.35,356.07,Single-ply,SBD,F,
Girls,60.1,3,Kylee Carey,Hawley,59.24,149.69,79.38,124.74,353.8,Single-ply,SBD,F,
Girls,60.1,4,Bre Leathers,Hawley,58.69,124.74,83.91,133.81,342.46,Single-ply,SBD,F,
Girls,60.1,5,Minnel Leal,Dimmitt,59.78,122.47,65.77,145.15,333.39,Single-ply,SBD,F,
Girls,60.1,6,Soli Cisneros,Slaton,58.88,124.74,68.04,124.74,317.51,Single-ply,SBD,F,
Girls,60.1,7,Daniela Bustillos,Sunray,59.87,124.74,61.23,127.01,312.98,Single-ply,SBD,F,
Girls,60.1,8,Maci Garrett,Wink,58.06,104.33,70.31,131.54,306.17,Single-ply,SBD,F,
Girls,60.1,9,Mariana Rosales,Tulia,56.25,122.47,52.16,127.01,301.64,Single-ply,SBD,F,
Girls,60.1,10,Ashley Ricks,McCamey,58.97,108.86,70.31,106.59,285.76,Single-ply,SBD,F,
Girls,60.1,11,Mercedes Davis,Mertzon Irion County,60.06,120.2,47.63,113.4,281.23,Single-ply,SBD,F,
Girls,60.1,DQ,Amy Rodriguez,Crane,59.87,,,,,Single-ply,SBD,F,
Girls,67.36,1,Alexis Phillips,Mertzon Irion County,62.78,163.29,81.65,158.76,403.7,Single-ply,SBD,F,
Girls,67.36,2,K'Lynn O'Shields,Hawley,66.77,170.1,79.38,140.61,390.09,Single-ply,SBD,F,
Girls,67.36,3,Madilyn Cathey,Panhandle,65.86,154.22,72.57,136.08,362.87,Single-ply,SBD,F,
Girls,67.36,4,Ysabella Flores,Ozona,65.5,145.15,63.5,140.61,349.27,Single-ply,SBD,F,
Girls,67.36,5,Mayra Lozano,Seagraves,66.04,142.88,61.23,127.01,331.12,Single-ply,SBD,F,
Girls,67.36,6,Robbi Martinez,Eldorado,67.04,145.15,58.97,113.4,317.51,Single-ply,SBD,F,
Girls,67.36,7,Amy Molina,McCamey,63.59,136.08,61.23,115.67,312.98,Single-ply,SBD,F,
Girls,67.36,8,Alejandra Villanueva,Junction,63.14,124.74,61.23,124.74,310.71,Single-ply,SBD,F,
Girls,67.36,9,Ashleigh Broom,Dimmitt,66.95,127.01,70.31,113.4,310.71,Single-ply,SBD,F,
Girls,67.36,10,Jo Vasquez,Dimmitt,66.59,117.93,68.04,117.93,303.91,Single-ply,SBD,F,
Girls,67.36,DQ,Jessica Campa,Sonora,61.87,145.15,56.7,113.4,,Single-ply,SBD,F,
Girls,67.36,DQ,Maci Harmon,Tahoka,67.31,142.88,70.31,,,Single-ply,SBD,F,
Girls,75.07,1,Yatzari Narvaez,Eldorado,69.31,181.44,90.72,142.88,415.04,Single-ply,SBD,F,
Girls,75.07,2,Jackie Covarrubiaz,Eldorado,69.67,149.69,68.04,147.42,365.14,Single-ply,SBD,F,
Girls,75.07,3,Amaya Ramos,Slaton,72.03,138.35,83.91,129.27,351.53,Single-ply,SBD,F,
Girls,75.07,4,Kiarra Telles,Junction,68.67,122.47,81.65,133.81,337.93,Single-ply,SBD,F,
Girls,75.07,5,Jade Borrego,Ozona,73.94,136.08,77.11,122.47,335.66,Single-ply,SBD,F,
Girls,75.07,6,Bryshna Solis,Crane,69.76,142.88,63.5,127.01,333.39,Single-ply,SBD,F,
Girls,75.07,7,Kirah Kimball,Coahoma,74.21,129.27,81.65,122.47,333.39,Single-ply,SBD,F,
Girls,75.07,8,Cj Lopez,Sundown,68.4,136.08,54.43,136.08,326.59,Single-ply,SBD,F,
Girls,75.07,9,Savannah Cantu,Tulia,68.76,120.2,58.97,133.81,312.98,Single-ply,SBD,F,
Girls,75.07,10,Destiny Read,Colorado City Colorado,69.22,124.74,52.16,131.54,308.44,Single-ply,SBD,F,
Girls,75.07,DQ,Ariana Perez,Dimmitt,73.39,,,,,Single-ply,SBD,F,
Girls,75.07,DQ,Ivey Rodriguez,Ozona,68.76,136.08,,,,Single-ply,SBD,F,
Girls,75.07,DQ,Carlie Ramos,Ozona,67.86,131.54,,,,Single-ply,SBD,F,
Girls,82.33,1,Bella Glass,Big Lake Reagan County,77.75,188.24,81.65,156.49,426.38,Single-ply,SBD,F,
Girls,82.33,2,Jacquelyn Olivas,Vega,79.29,158.76,95.25,140.61,394.63,Single-ply,SBD,F,
Girls,82.33,3,Sammy Lozano,Eldorado,80.56,151.95,83.91,156.49,392.36,Single-ply,SBD,F,
Girls,82.33,4,Revee Carranza,Sundown,80.83,149.69,65.77,163.29,378.75,Single-ply,SBD,F,
Girls,82.33,5,Denys Carrasco,Big Lake Reagan County,80.56,156.49,72.57,140.61,369.68,Single-ply,SBD,F,
Girls,82.33,6,Hazel Guerrero,Childress,77.75,136.08,79.38,133.81,349.27,Single-ply,SBD,F,
Girls,82.33,7,San Juanita Arellano,Floydada,78.93,147.42,61.23,131.54,340.19,Single-ply,SBD,F,
Girls,82.33,8,Mackenzie Pritt,Childress,78.74,138.35,68.04,129.27,335.66,Single-ply,SBD,F,
Girls,82.33,9,Danielle Fonseca,New Home,81.1,133.81,79.38,115.67,328.85,Single-ply,SBD,F,
Girls,82.33,10,Marium Monreal,Dimmitt,81.47,136.08,65.77,117.93,319.78,Single-ply,SBD,F,
Girls,82.33,DQ,Mackinzie Boreing,Slaton,82.1,138.35,,,,Single-ply,SBD,F,
Girls,82.33,DQ,Yamilette Martinez,Lockney,81.28,,,,,Single-ply,SBD,F,
Girls,90.04,1,Cyra Mireles,Ropesville Ropes,84.64,167.83,108.86,161.03,437.72,Single-ply,SBD,F,
Girls,90.04,2,Mysti Mata,Ozona,85.09,140.61,97.52,136.08,374.21,Single-ply,SBD,F,
Girls,90.04,3,Yazmin Barron,Dimmitt,89.18,158.76,74.84,140.61,374.21,Single-ply,SBD,F,
Girls,90.04,4,Iris Guerrero,Big Lake Reagan County,87.09,161.03,63.5,140.61,365.14,Single-ply,SBD,F,
Girls,90.04,5,Veronica Salinas,Tulia,87.63,154.22,63.5,142.88,360.61,Single-ply,SBD,F,
Girls,90.04,6,Kaidie Hackler,Childress,82.46,142.88,70.31,136.08,349.27,Single-ply,SBD,F,
Girls,90.04,7,Terra Reed,Coleman,89.36,131.54,77.11,136.08,344.73,Single-ply,SBD,F,
Girls,90.04,8,Hannah Covarrubiaz,Sonora,83.73,147.42,52.16,138.35,337.93,Single-ply,SBD,F,
Girls,90.04,9,Kayla Carroll,New Home,89.72,127.01,83.91,127.01,337.93,Single-ply,SBD,F,
Girls,90.04,10,Yesenia Garza,Sonora,85.64,154.22,54.43,117.93,326.59,Single-ply,SBD,F,
Girls,90.04,11,Araceli Valdez,Slaton,86.55,102.06,63.5,129.27,294.84,Single-ply,SBD,F,
Girls,90.04,NS,Jill Rojas,Muleshoe,,,,,,Single-ply,SBD,F,
Girls,100.02,1,Taylor McCarty,Childress,97.43,176.9,97.52,161.03,435.45,Single-ply,SBD,F,
Girls,100.02,2,Jae Dea DeBusk,Clyde,99.16,154.22,90.72,145.15,390.09,Single-ply,SBD,F,
Girls,100.02,3,Kayleigh Hernandez,Ozona,90.72,154.22,86.18,145.15,385.55,Single-ply,SBD,F,
Girls,100.02,4,Angelica Hernandez,Hawley,95.25,158.76,86.18,136.08,381.02,Single-ply,SBD,F,
Girls,100.02,5,Ruby Aguilar,Hawley,97.25,165.56,81.65,133.81,381.02,Single-ply,SBD,F,
Girls,100.02,6,Alexis Briley,San Angelo Grape Creek,96.62,174.63,77.11,120.2,371.95,Single-ply,SBD,F,
Girls,100.02,7,Marilyn Martinez,Dimmitt,97.16,142.88,79.38,136.08,358.34,Single-ply,SBD,F,
Girls,100.02,8,Elena Lomas,Anson,95.53,151.95,56.7,147.42,356.07,Single-ply,SBD,F,
Girls,100.02,9,Ashley Moran,Ozona,91.08,145.15,83.91,120.2,349.27,Single-ply,SBD,F,
Girls,100.02,10,Savannah Castillo,Sudan,90.26,149.69,65.77,124.74,340.19,Single-ply,SBD,F,
Girls,100.02,11,Maribel Garcia,Tahoka,94.89,145.15,63.5,122.47,331.12,Single-ply,SBD,F,
Girls,100.02,12,Clarissa Rivera,Dimmitt,94.08,117.93,65.77,127.01,310.71,Single-ply,SBD,F,
Girls,117.71,1,Kaitlyn Tambunga,Ozona,112.13,197.31,88.45,158.76,444.52,Single-ply,SBD,F,
Girls,117.71,2,Makayla Toscano,Muleshoe,103.06,195.04,72.57,149.69,417.3,Single-ply,SBD,F,
Girls,117.71,3,Alisha Parks,Coleman,111.31,190.51,83.91,136.08,410.5,Single-ply,SBD,F,
Girls,117.71,4,Marisela Lozano,Stanton,101.88,188.24,79.38,131.54,399.16,Single-ply,SBD,F,
Girls,117.71,5,Renijah Sledge,Tulia,114.76,158.76,74.84,158.76,392.36,Single-ply,SBD,F,
Girls,117.71,6,Hailee Widener,Lockney,109.86,161.03,92.99,136.08,390.09,Single-ply,SBD,F,
Girls,117.71,7,Nyia Allen,McCamey,107.95,142.88,90.72,140.61,374.21,Single-ply,SBD,F,
Girls,117.71,8,Maraya Corrales,Dimmitt,104.51,136.08,86.18,142.88,365.14,Single-ply,SBD,F,
Girls,117.71,9,Katie Sehon,Sundown,110.59,136.08,63.5,163.29,362.87,Single-ply,SBD,F,
Girls,117.71,10,Kelcey Zubiate,Forsan,101.79,138.35,88.45,122.47,349.27,Single-ply,SBD,F,
Girls,117.71,11,Mercedes Aranda,Crane,115.85,140.61,68.04,133.81,342.46,Single-ply,SBD,F,
Girls,117.71,12,Ashtyn Marquez,McCamey,110.04,138.35,54.43,129.27,322.05,Single-ply,SBD,F,
Girls,117.71+,1,Abbey Lee,Christoval,130.45,147.42,113.4,147.42,408.23,Single-ply,SBD,F,
Girls,117.71+,2,Reagan Barrera,Ozona,122.56,149.69,83.91,149.69,383.29,Single-ply,SBD,F,
Girls,117.71+,3,Arlene Solis,Dimmitt,119.11,138.35,68.04,142.88,349.27,Single-ply,SBD,F,
Girls,117.71+,4,Elena Ortiz,Iraan,128.64,147.42,68.04,122.47,337.93,Single-ply,SBD,F,
Girls,117.71+,5,Tashy Steen,Christoval,117.93,140.61,49.9,129.27,319.78,Single-ply,SBD,F,
Girls,117.71+,6,Leslie Phillips,Hawley,117.75,113.4,61.23,104.33,278.96,Single-ply,SBD,F,
Girls,117.71+,7,Jamee Tate,Memphis,191.69,43.09,74.84,90.72,208.65,Single-ply,SBD,F,
Girls,117.71+,DQ,Alexa Caro-Para,Kermit,123.92,,,,,Single-ply,SBD,F,
Girls,117.71+,DQ,Alyssia Castillo,Sudan,125.37,,,,,Single-ply,SBD,F,
Girls,117.71+,DQ,Meadow Gallentine,Anson,128.46,197.31,65.77,,,Single-ply,SBD,F,
