Name,Sex,BirthDate,BirthYear,BodyweightKg,WeightClassKg,Squat1Kg,Squat2Kg,Squat3Kg,Best3SquatKg,Bench1Kg,Bench2Kg,Bench3Kg,Best3BenchKg,Deadlift1Kg,Deadlift2Kg,Deadlift3Kg,Best3DeadliftKg,TotalKg,Division,Place,Equipment,Event
Patricia Nopp,F,,1996,70.3,72,140,145,-150,145,65,70,-75,70,110,120,-130,120,335,Open,1,Single-ply,SBD
Markus Simbrummer,M,,1980,100.7,105,200,215,230,230,150,157.5,162.5,162.5,205,215,222.5,222.5,615,Masters1,1,Single-ply,SBD
