Name,Sex,BirthYear,BodyweightKg,WeightClassKg,Bench1Kg,Bench2Kg,Bench3Kg,Best3BenchKg,TotalKg,Division,Equipment,Event,Place
Nicole Müller,F,1994,46.2,47,35,37.5,-42.5,37.5,37.5,Open,Raw,B,1
Anneliese Ulmer-Wolf,F,1949,56.2,57,40,42.5,-45,42.5,42.5,Open,Raw,B,1
Elisabeth Keiml,F,1959,59.1,63,60,65,-70,65,65,Open,Raw,B,1
Alexandra Tichy,F,1990,82.5,84,80,87.5,-92.5,87.5,87.5,Open,Raw,B,1
Josef Fenzl,M,1989,56.7,59,50,65,-75,65,65,Open,Raw,B,2
Manuel Bandion,M,1984,58.8,59,65,70,75,75,75,Open,Raw,B,1
Alfred Immler,M,1980,65.1,66,65,-70,-70,65,65,Open,Raw,B,1
Christi Clampariu,M,1980,67.8,74,137.5,145,-155,145,145,Open,Raw,B,1
Kevin Pumpa,M,1991,76.2,83,135,145,-150,145,145,Open,Raw,B,3
Andreas Hofstetter,M,1988,83,83,160,170,-180,170,170,Open,Raw,B,2
Thomas Teleki,M,1988,78.2,83,190,-200,-200,190,190,Open,Raw,B,1
Albert Speiser,M,1983,79.9,83,80,90,100,100,100,Open,Raw,B,4
Gerhard Haslinger,M,1967,90.1,93,160,170,180,180,180,Open,Raw,B,2
Thomas Wetzstein,M,1974,92.6,93,245,255,-260,255,255,Open,Raw,B,1
Josef Rothensteiner,M,1976,93.2,105,220,-230,-230,220,220,Open,Raw,B,1
Michael Mitterlehner,M,1983,102.1,105,-200,200,-210,200,200,Open,Raw,B,2
Roman Janker,M,1982,101.9,105,150,160,-170,160,160,Open,Raw,B,3
Leopold Tichy,M,1961,103.9,105,120,127.5,-132.5,127.5,127.5,Open,Raw,B,4
Martin Tichý,M,1992,102.9,105,100,120,-130,120,120,Open,Raw,B,5
Michael Pischinger,M,1978,114.2,120,250,260,265,265,265,Open,Raw,B,1
Manfred Schütz,M,1978,105.2,120,110,120,,120,120,Open,Raw,B,3
Mario Heger,M,1988,115,120,180,-190,200,200,200,Open,Raw,B,2
Thomas Schuster,M,1982,120.1,120+,180,190,200,200,200,Open,Raw,B,1
