Place,Name,BirthYear,BodyweightKg,Bench1Kg,Bench2Kg,Bench3Kg,Best3BenchKg,WeightClassKg,Sex,CyrillicName,Equipment,Division,Event,TotalKg
1,Anastasiya Kulikova,1991,42.5,52.5,55,57.5,57.5,43,F,Анастасия Куликова,Single-ply,Juniors,B,57.5
2,Ekaterina Alikina,1993,41.15,50,52.5,-57.5,52.5,43,F,Екатерина Аликина,Single-ply,Juniors,B,52.5
3,Anastasiya Polivanova,1993,42.6,-30,30,35,35,43,F,Анастасия Поливанова,Single-ply,Juniors,B,35
1,Aigul Sitdikova,1989,46.75,85,90,95,95,47,F,Айгуль Ситдикова,Single-ply,Juniors,B,95
2,Aleksandra Churkina,1992,46.5,70,75,-80,75,47,F,Александра Чуркина,Single-ply,Juniors,B,75
3,Anna Eliseeva,,46.7,70,-72.5,72.5,72.5,47,F,Анна Елисеева,Single-ply,Juniors,B,72.5
4,Alesya Sarancha,1993,47,65,67.5,-75,67.5,47,F,Алеся Саранча,Single-ply,Juniors,B,67.5
1,Zinaida Evdokimova,1993,51.05,-95,100,102.5,102.5,52,F,Зинаида Евдокимова,Single-ply,Juniors,B,102.5
2,Natalya Melnikova,1992,52,92.5,-97.5,-105,92.5,52,F,Наталья Мельникова,Single-ply,Juniors,B,92.5
3,Polina Ananeva,1993,51.75,70,77.5,-80,77.5,52,F,Полина Ананьева,Single-ply,Juniors,B,77.5
1,Yuliya Shilina,1989,54.1,105,112.5,-117.5,112.5,57,F,Юлия Шилина,Single-ply,Juniors,B,112.5
2,Anna Birzhevaya,1992,52.35,90,95,97.5,97.5,57,F,Анна Биржевая,Single-ply,Juniors,B,97.5
3,Anastasiya Bolshanina,1993,53.05,90,95,-97.5,95,57,F,Анастасия Большанина,Single-ply,Juniors,B,95
4,Olesya Vracheva,1990,56.2,65,70,72.5,72.5,57,F,Олеся Врачева,Single-ply,Juniors,B,72.5
5,Anastasiya Gubanova,1993,56.95,57.5,-62.5,62.5,62.5,57,F,Анастасия Губанова,Single-ply,Juniors,B,62.5
1,Tatyana Gabidulina,1992,60.45,-105,107.5,-112.5,107.5,63,F,Татьяна Габидулина,Single-ply,Juniors,B,107.5
2,Lidiya Chukhonastova,1993,62.8,100,105,107.5,107.5,63,F,Лидия Чухонастова,Single-ply,Juniors,B,107.5
3,Yana Talybova,1991,63,95,105,-112.5,105,63,F,Яна Талыбова,Single-ply,Juniors,B,105
4,Natalya Fakirova,1991,62.85,-90,-95,95,95,63,F,Наталья Факирова,Single-ply,Juniors,B,95
5,Margarita Savina,1990,61.55,72.5,77.5,-80,77.5,63,F,Маргарита Савина,Single-ply,Juniors,B,77.5
1,Yulia Chistiakova,1989,71.55,130,138,140,140,72,F,Юлия Чистякова,Single-ply,Juniors,B,140
2,Alina Bayramova,1991,66.6,60,67.5,-75,67.5,72,F,Алина Байрамова,Single-ply,Juniors,B,67.5
1,Ekaterina Baranova,1992,81.45,132.5,137.5,142.5,142.5,84,F,Екатерина Баранова,Single-ply,Juniors,B,142.5
2,Narine Kotenko,1991,72.15,120,-130,-140,120,84,F,Наринэ Котенко,Single-ply,Juniors,B,120
3,Mariya Layzan,1990,77.3,90,100,105,105,84,F,Мария Лайзан,Single-ply,Juniors,B,105
4,Marina Goryacheva,1992,74.2,80,85,,85,84,F,Марина Горячева,Single-ply,Juniors,B,85
DD,Irina Vorontsova,1990,76.25,130,135,142.5,142.5,84,F,Ирина Воронцова,Single-ply,Juniors,B,
DQ,Anastasiya Balko,1989,100.05,-135,-142.5,-142.5,,84+,F,Анастасия Балко,Single-ply,Juniors,B,
1,Ayrat Zinnatullin,1990,52.9,110,115,120,120,53,M,Айрат Зийннатуллин,Single-ply,Juniors,B,120
2,Fazil Gasanov,1993,53,95,102.5,110,110,53,M,Фазил Гасанов,Single-ply,Juniors,B,110
3,Rashad Mamedov,1993,52.65,100,107.5,-110,107.5,53,M,Рашад Мамедов,Single-ply,Juniors,B,107.5
4,Igor Bykov,1991,45.8,80,85,-90,85,53,M,Игорь Быков,Single-ply,Juniors,B,85
1,Oleg Smirnov,1990,58.05,160,170,175,175,59,M,Олег Смирнов,Single-ply,Juniors,B,175
2,Kirill Krut,1991,58.3,147.5,152.5,157.5,157.5,59,M,Кирилл Круть,Single-ply,Juniors,B,157.5
3,Aleksey Khrenkov,1992,57.9,145,150,155,155,59,M,Алексей Хренков,Single-ply,Juniors,B,155
4,Fahri Guliyev,1991,58.3,125,135,145,145,59,M,Фахри Гулиев,Single-ply,Juniors,B,145
5,Andrey Zybkin,1989,58.5,127.5,132.5,142.5,142.5,59,M,Андрей Зыбкин,Single-ply,Juniors,B,142.5
6,Pavel Deltsov,1991,58.4,130,140,-142.5,140,59,M,Павел Дельцов,Single-ply,Juniors,B,140
7,Igor Zhukov,1993,58.35,-135,-137.5,137.5,137.5,59,M,Игорь Жуков,Single-ply,Juniors,B,137.5
8,Grigoriy Gruzdev,1991,57.15,107.5,112.5,117.5,117.5,59,M,Григорий Груздев,Single-ply,Juniors,B,117.5
1,Yan Urusov,1989,65.35,-200,200,205,205,66,M,Ян Урусов,Single-ply,Juniors,B,205
2,Maksim Korolev,1989,65.05,165,170,172.5,172.5,66,M,Максим Королев,Single-ply,Juniors,B,172.5
3,Roman Bakhshiev,1993,65.95,-160,160,170,170,66,M,Роман Бахшиев,Single-ply,Juniors,B,170
4,Viktor Chukleev,1989,65.7,157.5,162.5,165,165,66,M,Виктор Чуклеев,Single-ply,Juniors,B,165
5,Sergey Trifonov,1990,64.65,155,-162.5,162.5,162.5,66,M,Сергей Трифонов,Single-ply,Juniors,B,162.5
6,Ilnur Kamaev,1989,65.1,160,-162.5,-170,160,66,M,Ильнур Камаев,Single-ply,Juniors,B,160
7,Aleksandr Dulepov,1993,65.4,150,160,-167.5,160,66,M,Александр Дулепов,Single-ply,Juniors,B,160
8,Dmitriy Tinaev,1990,65.5,150,160,-165,160,66,M,Дмитрий Тинаев,Single-ply,Juniors,B,160
1,Mikhail Suvorov,1989,73.5,200,-210,210,210,74,M,Михаил Суворов,Single-ply,Juniors,B,210
2,Aleksey Zdorikov,1991,72.8,185,195,200,200,74,M,Алексей Здориков,Single-ply,Juniors,B,200
3,Ivan Pavlov,1991,72,185,195,-200,195,74,M,Иван Павлов,Single-ply,Juniors,B,195
4,Stanislav Volskiy,1992,73.55,185,192.5,-197.5,192.5,74,M,Станислав Вольский,Single-ply,Juniors,B,192.5
5,Valeriy Makhalov,1990,73.95,185,192.5,-197.5,192.5,74,M,Валерий Махалов,Single-ply,Juniors,B,192.5
6,Ruslan Kravchuk,1993,72.2,170,180,190,190,74,M,Руслан Кравчук,Single-ply,Juniors,B,190
7,Andrey Prodchenko,1992,72.6,180,187.5,-195,187.5,74,M,Андрей Продченко,Single-ply,Juniors,B,187.5
8,Ilya Kuznetsov,1992,73.7,180,187.5,-197.5,187.5,74,M,Илья Кузнецов,Single-ply,Juniors,B,187.5
9,Georgiy Brykin,1990,71.95,170,182.5,-190,182.5,74,M,Георгий Брыкин,Single-ply,Juniors,B,182.5
1,Eduard Tebenkov,1990,80.9,220,225,-230,225,83,M,Эдуард Тебеньков,Single-ply,Juniors,B,225
2,Murat Amirkhanov,1990,82,200,-205,-210,200,83,M,Мурат Амирханов,Single-ply,Juniors,B,200
3,Dmitriy Nikultsev,1989,82,180,187.5,197.5,197.5,83,M,Дмитрий Никульцев,Single-ply,Juniors,B,197.5
4,Muradkhan Sultanov,1993,82.45,185,187.5,-210,187.5,83,M,Мурадхан Султанов,Single-ply,Juniors,B,187.5
5,Aleksandr Pavlenko,1990,82.5,180,-192.5,-192.5,180,83,M,Александр Павленко,Single-ply,Juniors,B,180
6,Anton Boltinskiy,1993,75.8,160,167.5,175,175,83,M,Антон Болтинский,Single-ply,Juniors,B,175
DQ,Nikolay Tsaplin,1993,78.35,-205,-205,-207.5,,83,M,Николай Цаплин,Single-ply,Juniors,B,
1,Pavel Kornev,1989,92.55,232.5,242.5,252.5,252.5,93,M,Павел Корнев,Single-ply,Juniors,B,252.5
2,Aleksey Khamov,1991,91.55,-240,240,250,250,93,M,Алексей Хамов,Single-ply,Juniors,B,250
3,Andrey Ryzhkov,1992,91,230,-240,242.5,242.5,93,M,Андрей Рыжков,Single-ply,Juniors,B,242.5
4,Denis Zhigulin,1989,91.55,-220,220,232.5,232.5,93,M,Денис Жигулин,Single-ply,Juniors,B,232.5
5,Valeriy Borovikov,1992,88.9,-220,-220,220,220,93,M,Валерий Боровиков,Single-ply,Juniors,B,220
6,Nikolay Presnyakov,1990,86.95,-190,190,192.5,192.5,93,M,Николай Пресняков,Single-ply,Juniors,B,192.5
7,Yuriy Garanin,1991,92.1,180,-187.5,-187.5,180,93,M,Юрий Гаранин,Single-ply,Juniors,B,180
DQ,Denis Golovnev,1989,92,-242.5,-242.5,-245,,93,M,Денис Головнев,Single-ply,Juniors,B,
1,Mikhail Volkov,1989,93.9,205,210,215,215,105,M,Михаил Волков,Single-ply,Juniors,B,215
2,Dmitriy Kudrevskiy,1990,104.15,190,197.5,200,200,105,M,Дмитрий Кудревский,Single-ply,Juniors,B,200
3,Ruslan Sitdikov,1993,102.3,-175,175,197.5,197.5,105,M,Руслан Ситдиков,Single-ply,Juniors,B,197.5
1,Ivan Goryachev,1990,117.15,270,277.5,,277.5,120,M,Иван Горячев,Single-ply,Juniors,B,277.5
2,Vitaliy Baranov,1990,108.75,210,220,-227.5,220,120,M,Виталий Баранов,Single-ply,Juniors,B,220
3,Vadim Shevchuk,1990,106.25,-210,210,-222.5,210,120,M,Вадим Шевчук,Single-ply,Juniors,B,210
4,Denis Kuzin,1989,111.15,-210,-210,210,210,120,M,Денис Кузин,Single-ply,Juniors,B,210
DQ,Aleksey Abramov,1989,119.4,-265,-265,-275,,120,M,Алексей Абрамов,Single-ply,Juniors,B,
1,Igor Filippov,1989,127.9,250,-260,265,265,120+,M,Игорь Филиппов,Single-ply,Juniors,B,265
2,Andrey Kochetov,1990,129.25,250,260,265,265,120+,M,Андрей Кочетов,Single-ply,Juniors,B,265
3,Ivan Gorodkov,1991,124.65,180,-195,195,195,120+,M,Иван Городков,Single-ply,Juniors,B,195
1,Vyacheslav Fomich,1994,52.15,105,110,115,115,53,M,Вячеслав Фомич,Single-ply,Sub-Juniors,B,115
2,Gennadiy Yadne,1994,51.95,100,105,110,110,53,M,Геннадий Ядне,Single-ply,Sub-Juniors,B,110
3,Ruslan Balabanov,1996,52.9,100,107.5,-112.5,107.5,53,M,Руслан Балабанов,Single-ply,Sub-Juniors,B,107.5
4,Artem Nazarov,1995,52.25,100,105,-107.5,105,53,M,Артем Назаров,Single-ply,Sub-Juniors,B,105
5,Yuriy Sayranov,1995,52.4,100,105,-110,105,53,M,Юрий Сайранов,Single-ply,Sub-Juniors,B,105
1,Vitaly Starilov,1994,58.2,135,142.5,-147.5,142.5,59,M,Виталий Старилов,Single-ply,Sub-Juniors,B,142.5
2,Vladislav Shaibekov,1995,58.6,125,130,135,135,59,M,Владислав Шайбеков,Single-ply,Sub-Juniors,B,135
3,Artem Shershnev,1994,57.3,120,-127.5,132.5,132.5,59,M,Артем Шершнев,Single-ply,Sub-Juniors,B,132.5
4,Azamat Anvarov,1994,58.2,120,127.5,132.5,132.5,59,M,Азамат Анваров,Single-ply,Sub-Juniors,B,132.5
5,Andrey Aganin,1995,57.15,122.5,127.5,130,130,59,M,Андрей Аганин,Single-ply,Sub-Juniors,B,130
6,Rafael Sadykov,1994,58.75,127.5,130,-135,130,59,M,Рафаэль Садыков,Single-ply,Sub-Juniors,B,130
7,Nikita Paradiev,1994,58.75,122.5,127.5,-132.5,127.5,59,M,Никита Парадиев,Single-ply,Sub-Juniors,B,127.5
1,Elchin Muradov,1994,65.4,140,147.5,-150,147.5,66,M,Елчин Мурадов,Single-ply,Sub-Juniors,B,147.5
2,Valeriy Vorotilin,1995,65.85,-140,140,147.5,147.5,66,M,Валерий Воротилин,Single-ply,Sub-Juniors,B,147.5
3,Georgiy Alekseev,1994,65.5,-135,142.5,-147.5,142.5,66,M,Георгий Алексеев,Single-ply,Sub-Juniors,B,142.5
4,Ildar Gilmutdinov,1994,64.85,120,125,130,130,66,M,Ильдар Гильмутдинов,Single-ply,Sub-Juniors,B,130
5,Vladislav Leontyev,1994,65.55,-127.5,-127.5,127.5,127.5,66,M,Владислав Леонтьев,Single-ply,Sub-Juniors,B,127.5
6,Oleg Voronin,1995,65.25,-110,110,-115,110,66,M,Олег Воронин,Single-ply,Sub-Juniors,B,110
7,Oleg Gavrilov,1995,64.85,90,95,97.5,97.5,66,M,Олег Гаврилов,Single-ply,Sub-Juniors,B,97.5
1,Marat Aminov,1995,73.6,170,177.5,-183,177.5,74,M,Марат Аминов,Single-ply,Sub-Juniors,B,177.5
2,Vladimir Prazdnikov,1994,73.4,155,162.5,167.5,167.5,74,M,Владимир Праздников,Single-ply,Sub-Juniors,B,167.5
3,Artem Kudin,1994,73.4,150,160,-165,160,74,M,Артем Кудин,Single-ply,Sub-Juniors,B,160
4,Denis Shavaleev,1994,73.45,145,152.5,-157.5,152.5,74,M,Денис Шавалеев,Single-ply,Sub-Juniors,B,152.5
5,Evgeniy Khorsov,1994,71.5,115,125,135,135,74,M,Евгений Хорсов,Single-ply,Sub-Juniors,B,135
1,Oleg Ustinovich,1994,82.35,160,165,167.5,167.5,83,M,Олег Устинович,Single-ply,Sub-Juniors,B,167.5
2,Nikolay Kalchik,1994,81.2,150,157.5,165,165,83,M,Николай Кальчик,Single-ply,Sub-Juniors,B,165
3,Maksim Abdulmanafov,1994,82.3,165,-175,-175,165,83,M,Максим Абдулманафов,Single-ply,Sub-Juniors,B,165
4,Dmitriy Cherkashin,1995,82.3,145,152.5,-160,152.5,83,M,Дмитрий Черкашин,Single-ply,Sub-Juniors,B,152.5
5,Andrey Ozerov,1995,74.05,110,-117.5,117.5,117.5,83,M,Андрей Озеров,Single-ply,Sub-Juniors,B,117.5
1,Evgeniy Pesegov,1994,87.25,175,180,188,188,93,M,Евгений Песегов,Single-ply,Sub-Juniors,B,188
2,Dmitriy Ezhov,1995,84.35,150,160,165,165,93,M,Дмитрий Ежов,Single-ply,Sub-Juniors,B,165
3,Denis Kalukhin,1994,90.7,165,-172.5,-172.5,165,93,M,Денис Калухин,Single-ply,Sub-Juniors,B,165
4,Artem Golyak,1995,84.2,145,150,-160,150,93,M,Артем Голяк,Single-ply,Sub-Juniors,B,150
5,Dmitriy Kotenko,1994,91.55,-150,150,-162.5,150,93,M,Дмитрий Котенко,Single-ply,Sub-Juniors,B,150
6,Evgeniy Royenko,1996,85.65,145,-152.5,-160,145,93,M,Евгений Роенко,Single-ply,Sub-Juniors,B,145
1,Valentin Vasilyev,1994,103.55,185,195,-205,195,105,M,Валентин Васильев,Single-ply,Sub-Juniors,B,195
2,Gleb Platonov,1994,94.45,120,130,135,135,105,M,Глеб Платонов,Single-ply,Sub-Juniors,B,135
3,Evgeniy Osadchiy,1997,97.75,-135,-135,135,135,105,M,Евгений Осадчий,Single-ply,Sub-Juniors,B,135
1,Sergey Yazykov,1995,112.5,155,165,170,170,120,M,Сергей Языков,Single-ply,Sub-Juniors,B,170
2,Oleg Voloshin,1994,105.4,130,137.5,140,140,120,M,Олег Волошин,Single-ply,Sub-Juniors,B,140
3,Roman Galyaminskikh,1996,106,122.5,130,-140,130,120,M,Роман Галяминских,Single-ply,Sub-Juniors,B,130
4,Maksim Voloshin,1996,105.4,122.5,-130,-130,122.5,120,M,Максим Волошин,Single-ply,Sub-Juniors,B,122.5
5,Andrey Troshkin,1994,118.05,115,122.5,-127.5,122.5,120,M,Андрей Трошкин,Single-ply,Sub-Juniors,B,122.5
1,Evgeniy Komarov,1994,123.2,192.5,200,210,210,120+,M,Евгений Комаров,Single-ply,Sub-Juniors,B,210
2,Aleksandr Ognevoy,1996,139.35,-155,155,165,165,120+,M,Александр Огневой,Single-ply,Sub-Juniors,B,165
3,Apti Suleymanov,1994,129.55,115,-120,-130,115,120+,M,Апти Сулейманов,Single-ply,Sub-Juniors,B,115
1,Anastasiya Kaneva,1998,42.95,-40,40,45,45,43,F,Анастасия Канева,Single-ply,Sub-Juniors,B,45
2,Yana Podymakhina,1998,40.7,40,-42.5,-42.5,40,43,F,Яна Подымахина,Single-ply,Sub-Juniors,B,40
3,Nadezhda Shmidt,1996,41.7,40,-42.5,-42.5,40,43,F,Надежда Шмидт,Single-ply,Sub-Juniors,B,40
4,Angelina Ruchka,1999,42.45,35,-37.5,,35,43,F,Ангелина Ручка,Single-ply,Sub-Juniors,B,35
DQ,Ekaterina Zhiltsova,1996,42.65,-42.5,-42.5,-42.5,,43,F,Екатерина Жильцова,Single-ply,Sub-Juniors,B,
1,Mariya Burova,1995,46.25,50,52.5,-55,52.5,47,F,Мария Бурова,Single-ply,Sub-Juniors,B,52.5
2,Larisa Otteva,1998,46.3,52.5,-55,-55,52.5,47,F,Лариса Оттева,Single-ply,Sub-Juniors,B,52.5
3,Irina Nikitina,1996,45.05,50,-55,-57.5,50,47,F,Ирина Никитина,Single-ply,Sub-Juniors,B,50
DQ,Tatyana Rikhelgof,1997,46.9,-60,-60,-60,,47,F,Татьяна Рихельгоф,Single-ply,Sub-Juniors,B,
1,Inna Filimonova #2,1994,50.8,95,102.5,106,106,52,F,Инна Филимонова,Single-ply,Sub-Juniors,B,106
2,Ekaterina Ivanova,1995,51.7,70,72.5,75,75,52,F,Екатерина Иванова,Single-ply,Sub-Juniors,B,75
3,Elizaveta Ikonnikova,1995,51.95,60,65,67.5,67.5,52,F,Елизавета Иконникова,Single-ply,Sub-Juniors,B,67.5
4,Mariya Vlasenkova,1995,51.65,52.5,57.5,60,60,52,F,Мария Власенкова,Single-ply,Sub-Juniors,B,60
5,Ilona Korostelenko,1995,50.85,50,52.5,-55,52.5,52,F,Илона Коростеленко,Single-ply,Sub-Juniors,B,52.5
6,Nadezhda Churilova,1996,51.6,47.5,-52.5,52.5,52.5,52,F,Надежда Чурилова,Single-ply,Sub-Juniors,B,52.5
7,Anastasiya Andryushina,1995,51.95,47.5,-52.5,-52.5,47.5,52,F,Анастасия Андрюшина,Single-ply,Sub-Juniors,B,47.5
8,Yuliya Tsukanova,1997,51.75,40,42.5,45,45,52,F,Юлия Цуканова,Single-ply,Sub-Juniors,B,45
1,Irina Kutuzova,1994,54.7,70,75,-82.5,75,57,F,Ирина Кутузова,Single-ply,Sub-Juniors,B,75
2,Aleksandra Matyukhina,1995,53.95,70,-80,-82.5,70,57,F,Александра Матюхина,Single-ply,Sub-Juniors,B,70
3,Yuliya Ivanova,1998,54.3,60,65,-67.5,65,57,F,Юлия Иванова,Single-ply,Sub-Juniors,B,65
4,Alisa Yugova,1995,56,55,60,62.5,62.5,57,F,Алиса Югова,Single-ply,Sub-Juniors,B,62.5
5,Irina Abbazova,1994,56.4,57.5,62.5,-65,62.5,57,F,Ирина Аббазова,Single-ply,Sub-Juniors,B,62.5
1,Anastasiya Yatsko,1994,61.15,75,80,87.5,87.5,63,F,Анастасия Яцко,Single-ply,Sub-Juniors,B,87.5
2,Alina Nikolaenko,1997,62.2,70,75,-82.5,75,63,F,Алина Николаенко,Single-ply,Sub-Juniors,B,75
3,Veronika Gangan,1998,58.25,62.5,-65,65,65,63,F,Вероника Ганган,Single-ply,Sub-Juniors,B,65
4,Anastasiya Panteleeva,1994,57.3,55,60,62.5,62.5,63,F,Анастасия Пантелеева,Single-ply,Sub-Juniors,B,62.5
1,Nadezhda Minkova,1994,71.65,65,-70,75,75,72,F,Надежда Минькова,Single-ply,Sub-Juniors,B,75
2,Alina Davletshina,1996,64.6,67.5,72.5,-75,72.5,72,F,Алина Давлетшина,Single-ply,Sub-Juniors,B,72.5
3,Antonina Yazykova,1994,65.15,57.5,60,-67.5,60,72,F,Антонина Языкова,Single-ply,Sub-Juniors,B,60
DD,Anastasiya Putilina,1995,68.6,100,107.5,-112.5,107.5,72,F,Анастасия Путилина,Single-ply,Sub-Juniors,B,
1,Mariya Petrunina,1995,79.65,85,90,95,95,84,F,Мария Петрунина,Single-ply,Sub-Juniors,B,95
2,Fayruza Latypova,1994,79.3,-80,80,82.5,82.5,84,F,Фейруза Латыпова,Single-ply,Sub-Juniors,B,82.5
3,Anzhelika Koade,1995,83.15,-77.5,77.5,82.5,82.5,84,F,Анжелика Коадэ,Single-ply,Sub-Juniors,B,82.5
1,Anastasiya Moseeva,1994,111.55,90,-95,97.5,97.5,84+,F,Анастасия Мосеева,Single-ply,Sub-Juniors,B,97.5
2,Serafima Polushina,1996,92.2,30,37.5,40,40,84+,F,Серафима Полушина,Single-ply,Sub-Juniors,B,40
DQ,Yuliya Radchenko,1996,89.45,-92.5,-95,-95,,84+,F,Юлия Радченко,Single-ply,Sub-Juniors,B,
1,Igor Kuchin,1967,58.7,125,132.5,137.5,137.5,59,M,Игорь Кучин,Raw,Open,B,137.5
2,Artem Dorofeev,1988,58.05,105,110,115,115,59,M,Артем Дорофеев,Raw,Open,B,115
3,Mikhail Gorbachev,1987,58.3,100,102.5,-105,102.5,59,M,Михаил Горбачев,Raw,Open,B,102.5
DQ,Viktor Kurbatov #1,1978,,,,,,59,M,Виктор Курбатов,Raw,Open,B,
1,Artem Rubtsov,1984,66,170,177.5,180,180,66,M,Артем Рубцов,Raw,Open,B,180
2,Vitaliy Evgrafov,1987,64.1,135,140,145,145,66,M,Виталий Евграфов,Raw,Open,B,145
3,Vadim Zheleznyak,1970,64.85,130,135,-140,135,66,M,Вадим Железняк,Raw,Open,B,135
4,Vadim Elistratov,1983,64.95,130,-140,-140,130,66,M,Вадим Елистратов,Raw,Open,B,130
5,Vyacheslav Salyakhov,1980,66,120,-130,-132.5,120,66,M,Вячеслав Саляхов,Raw,Open,B,120
1,Valeriy Bogdanov,1970,73.45,175,180,187.5,187.5,74,M,Валерий Богданов,Raw,Open,B,187.5
2,Maksim Beloborodov,1983,73.9,170,180,-187.5,180,74,M,Максим Белобородов,Raw,Open,B,180
3,Andrey Ustinov,1988,73.55,165,172.5,-180,172.5,74,M,Андрей Устинов,Raw,Open,B,172.5
DQ,Aleksey Zhukov,1980,74,-170,-170,,,74,M,Алексей Жуков,Raw,Open,B,
1,Andrey Finogenov,1987,81.95,180,185,-191,185,83,M,Андрей Финогенов,Raw,Open,B,185
2,Sergey Shekurov,1981,82.45,-182.5,182.5,-187.5,182.5,83,M,Сергей Шекуров,Raw,Open,B,182.5
3,Stanislav Elfimov,1982,81.4,172.5,175,-180,175,83,M,Станислав Елфимов,Raw,Open,B,175
4,Aleksandr Peus,1984,81.3,170,-175,-175,170,83,M,Александр Пеус,Raw,Open,B,170
5,Denis Kuskov,1987,82.2,150,155,-157.5,155,83,M,Денис Кусков,Raw,Open,B,155
DQ,Dmitriy Buntov,1986,,,,,,83,M,Дмитрий Бунтов,Raw,Open,B,
1,Mayrbek Ataev,1974,91,-210,210,212.5,212.5,93,M,Майрбек Атаев,Raw,Open,B,212.5
2,Pavel Sled,1972,91.85,200,207.5,212.5,212.5,93,M,Павел Следь,Raw,Open,B,212.5
3,Aleksandr Zhachenkov,1981,91.55,-195,195,-197.5,195,93,M,Александр Жаченков,Raw,Open,B,195
4,Valeriy Nikishin,1965,92.25,190,-195,-197.5,190,93,M,Валерий Никишин,Raw,Open,B,190
5,Mikhail Bazhenov,1982,90.95,172.5,-177.5,-177.5,172.5,93,M,Михаил Баженов,Raw,Open,B,172.5
6,Vasiliy Vinogradov,1979,91.9,-170,170,-175,170,93,M,Василий Виноградов,Raw,Open,B,170
DQ,Vladimir Ageev,1973,,,,,,93,M,Владимир Агеев,Raw,Open,B,
1,Aleksandr Ostapchuk,1988,104.7,200,207.5,210,210,105,M,Александр Остапчук,Raw,Open,B,210
2,Konstantin Kuznetsov,1972,105,195,202.5,207.5,207.5,105,M,Константин Кузнецов,Raw,Open,B,207.5
3,Ruslan Pavlikov,1978,105,-205,205,-210,205,105,M,Руслан Павликов,Raw,Open,B,205
4,Aleksandr Shibalov,1974,96.25,190,195,202.5,202.5,105,M,Александр Шибалов,Raw,Open,B,202.5
5,Vitaliy Kunitsyn,1957,103.65,185,192.5,200,200,105,M,Виталий Куницын,Raw,Open,B,200
6,Evgeniy Akhmedov,1980,101.85,185,192.5,-197.5,192.5,105,M,Евгений Ахмедов,Raw,Open,B,192.5
7,Andrey Fomochkin,1965,99.3,180,-185,-185,180,105,M,Андрей Фомочкин,Raw,Open,B,180
8,Andrey Semenkov,1987,98.55,150,-160,160,160,105,M,Андрей Семенков,Raw,Open,B,160
9,Viktor Petrov,1978,102.15,150,-160,-160,150,105,M,Виктор Петров,Raw,Open,B,150
DQ,Valentin Abramov,1986,,,,,,105,M,Валентин Абрамов,Raw,Open,B,
1,Igor Saykov,1985,119.3,230,240,250,250,120,M,Игорь Сайков,Raw,Open,B,250
2,Pavel Kolokhin,1984,117.7,220,235,240,240,120,M,Павел Колохин,Raw,Open,B,240
3,Sergey Selezen,1980,120,215,222.5,230,230,120,M,Сергей Селезень,Raw,Open,B,230
4,Evgeniy Kuzmin,1978,113.55,220,227.5,-232.5,227.5,120,M,Евгений Кузьмин,Raw,Open,B,227.5
5,Sergey Kosarev,1980,110.3,225,-232.5,-232.5,225,120,M,Сергей Косарев,Raw,Open,B,225
6,Oleg Bokarev,1965,113.4,215,-220,-220,215,120,M,Олег Бокарев,Raw,Open,B,215
7,Maksim Tarasenko,1975,108.75,205,212.5,-220,212.5,120,M,Максим Тарасенко,Raw,Open,B,212.5
8,Anzor Guzuev,1988,107.85,200,-210,-210,200,120,M,Анзор Гузуев,Raw,Open,B,200
9,Dmitriy Yashurin,1982,113.05,190,-195,-195,190,120,M,Дмитрий Яшурин,Raw,Open,B,190
DQ,Dmitriy Arsenyev,1997,,,,,,120,M,Дмитрий Арсеньев,Raw,Open,B,
DQ,Aleksandr Sarychev,1974,,,,,,120,M,Александр Сарычев,Raw,Open,B,
1,Isa Israilov,1984,120.4,230,237.5,-240,237.5,120+,M,Иса Исраилов,Raw,Open,B,237.5
2,Denis Muratov,1984,127.85,220,225,-230,225,120+,M,Денис Муратов,Raw,Open,B,225
3,Vyacheslav Sementsov,1977,128.4,210,-217.5,,210,120+,M,Вячеслав Семенцов,Raw,Open,B,210
1,Olga Golubeva,1970,46.75,85,90,-92.5,90,47,F,Ольга Голубева,Raw,Open,B,90
2,Natalya Krikunova,1981,46.45,55,60,62.5,62.5,47,F,Наталья Крикунова,Raw,Open,B,62.5
3,Viktoriya Martynova,1985,46.5,-57.5,57.5,-62.5,57.5,47,F,Виктория Мартынова,Raw,Open,B,57.5
1,Marina Lemenovskaya,1985,51.55,75,82.5,-87.5,82.5,52,F,Марина Леменовская,Raw,Open,B,82.5
2,Kadriya Volkova,1986,49,67.5,72.5,75,75,52,F,Кадрия Волкова,Raw,Open,B,75
3,Aleksandra Makarova,1988,51.6,55,60,-62.5,60,52,F,Александра Макарова,Raw,Open,B,60
1,Olesya Kononovich,1987,56.85,67.5,72.5,75,75,57,F,Олеся Кононович,Raw,Open,B,75
2,Vera Muravyeva,1968,55.85,45,47.5,-50,47.5,57,F,Вера Муравьева,Raw,Open,B,47.5
1,Yuliya Bakhir,1984,60.65,82.5,87.5,-92.5,87.5,63,F,Юлия Бахир,Raw,Open,B,87.5
DQ,Ekaterina Guryeva,1985,,,,,,63,F,Екатерина Гурьева,Raw,Open,B,
1,Natalya Samarina,1984,68.55,110,115,120,120,72,F,Наталья Самарина,Raw,Open,B,120
2,Svetlana Fokina,1979,71.75,105,112.5,-122.5,112.5,72,F,Светлана Фокина,Raw,Open,B,112.5
3,Yuliya Bakulina,1982,71.85,90,95,-97.5,95,72,F,Юлия Бакулина,Raw,Open,B,95
1,Svetlana Tsvetkova,1980,75.05,100,102.5,,102.5,84,F,Светлана Цветкова,Raw,Open,B,102.5
1,Vera Egorova,1955,90.15,80,90,92.5,92.5,84+,F,Вера Егорова,Raw,Open,B,92.5
2,Marina Paleva,1985,86.45,80,85,-90,85,84+,F,Марина Палева,Raw,Open,B,85
1,Konstantin Pavlov,1973,58.85,175,180,-188,180,59,M,Константин Павлов,Single-ply,Open,B,180
2,Igor Kuchin,1967,58.65,155,162.5,170,170,59,M,Игорь Кучин,Single-ply,Open,B,170
3,Sergey Krylov,1984,58.4,160,167.5,-172.5,167.5,59,M,Сергей Крылов,Single-ply,Open,B,167.5
4,Dmitriy Devyatkin,1988,57.5,137.5,-145,-145,137.5,59,M,Дмитрий Девяткин,Single-ply,Open,B,137.5
5,Evgeniy Kolabin,1986,53.6,135,-142.5,,135,59,M,Евгений Колабин,Single-ply,Open,B,135
1,Artem Rubtsov,1984,66,205,212.5,215,215,66,M,Артем Рубцов,Single-ply,Open,B,215
2,Sergey Gladkikh,1989,65.85,200,-210,213,213,66,M,Сергей Гладких,Single-ply,Open,B,213
3,Nikolay Isaev,1991,65.75,-200,200,212.5,212.5,66,M,Николай Исаев,Single-ply,Open,B,212.5
4,Nikolay Pochinkin,1985,65.5,180,190,-200,190,66,M,Николай Починкин,Single-ply,Open,B,190
5,Artem Tavastsherna,1985,65.75,180,190,-200,190,66,M,Артем Тавастшерна,Single-ply,Open,B,190
6,Dmitriy Shutyak,1986,65.15,170,177.5,182.5,182.5,66,M,Дмитрий Шутяк,Single-ply,Open,B,182.5
7,Aleksandr Kolyshkin,1981,65.65,-172.5,172.5,180,180,66,M,Александр Колышкин,Single-ply,Open,B,180
8,Pavel Ukhanov,1987,66,155,-165,165,165,66,M,Павел Уханов,Single-ply,Open,B,165
9,Vyacheslav Salyakhov,1980,65.55,155,162.5,-172.5,162.5,66,M,Вячеслав Саляхов,Single-ply,Open,B,162.5
DQ,Dmitriy Chebotarev,1988,65.8,-165,-165,-165,,66,M,Дмитрий Чеботарев,Single-ply,Open,B,
1,Aleksandr Gromov,1981,73.7,220,230,235,235,74,M,Александр Громов,Single-ply,Open,B,235
2,Maksim Beloborodov,1983,73.65,220,225,232.5,232.5,74,M,Максим Белобородов,Single-ply,Open,B,232.5
3,Arthur Mashinskiy,1987,73.55,212.5,220,227.5,227.5,74,M,Артур Машинский,Single-ply,Open,B,227.5
4,Aleksandr Sharagashev,1986,73.65,215,222.5,-232.5,222.5,74,M,Александр Шарагашев,Single-ply,Open,B,222.5
5,Ivan Fedotov,1986,73.35,195,205,-210,205,74,M,Иван Федотов,Single-ply,Open,B,205
6,Aleksandr Kiselev,1974,71.3,-185,185,192.5,192.5,74,M,Александр Киселев,Single-ply,Open,B,192.5
7,Sergey Zaytsev,1986,73.5,170,180,-190,180,74,M,Сергей Зайцев,Single-ply,Open,B,180
8,Igor Schurilov,1984,73.7,175,180,-182.5,180,74,M,Игорь Щурилов,Single-ply,Open,B,180
DQ,Vyacheslav Rubtsov,1988,73.65,-205,-210,-210,,74,M,Вячеслав Рубцов,Single-ply,Open,B,
DQ,Andrey Ustinov,1988,73.55,-215,-222.5,-222.5,,74,M,Андрей Устинов,Single-ply,Open,B,
DQ,Alexey Bakhirev,1981,73.7,-215,-220,-232.5,,74,M,Алексей Бахирев,Single-ply,Open,B,
1,Sergey Knyazev,1976,80.15,255,257.5,260,260,83,M,Сергей Князев,Single-ply,Open,B,260
2,Dmitry Inzarkin,1987,82.75,240,247.5,250,250,83,M,Дмитрий Инзаркин,Single-ply,Open,B,250
3,Sergey Shekurov,1981,82.6,235,-242.5,247.5,247.5,83,M,Сергей Шекуров,Single-ply,Open,B,247.5
4,Andrey Laykhinen,1983,81.55,-240,240,-250,240,83,M,Андрей Лайхинен,Single-ply,Open,B,240
5,Evgeniy Nosach,1976,82.55,215,-222.5,222.5,222.5,83,M,Евгений Носач,Single-ply,Open,B,222.5
6,Sergey Melekhin,1972,83,205,212.5,222.5,222.5,83,M,Сергей Мелехин,Single-ply,Open,B,222.5
7,Sergey Tkachev,1981,82.65,215,220,-225,220,83,M,Сергей Ткачев,Single-ply,Open,B,220
8,Islam Khubiev,1982,81.7,-190,195,205,205,83,M,Ислам Хубиев,Single-ply,Open,B,205
9,Sergey Petrovskiy,1981,81.9,195,-205,-207.5,195,83,M,Сергей Петровский,Single-ply,Open,B,195
DQ,Denis Varyukhin,1986,82.1,-230,-230,-247.5,,83,M,Денис Варюхин,Single-ply,Open,B,
DD,Sergey Saranskiy,1979,82.9,-255,255,-261,255,83,M,Сергей Саранский,Single-ply,Open,B,
1,Vladimir Grishaev,1981,91.3,280,292.5,-305,292.5,93,M,Владимир Гришаев,Single-ply,Open,B,292.5
2,Valentin Kiselev,1987,91.2,265,277.5,285,285,93,M,Валентин Киселев,Single-ply,Open,B,285
3,Aleksandr Babin,1982,92.9,262.5,-270,-280,262.5,93,M,Александр Бабин,Single-ply,Open,B,262.5
4,Anatoliy Kovalev,1977,92.8,235,245,-252.5,245,93,M,Анатолий Ковалев,Single-ply,Open,B,245
5,Aleksey Selyavin,1988,92.5,235,242.5,-247.5,242.5,93,M,Алексей Селявин,Single-ply,Open,B,242.5
6,Aleksandr Shpak,1980,90.8,-240,240,-255,240,93,M,Александр Шпак,Single-ply,Open,B,240
7,Vasiliy Vinogradov,1979,92.2,-222.5,222.5,227.5,227.5,93,M,Василий Виноградов,Single-ply,Open,B,227.5
8,Dmitriy Kashin,1988,90.3,220,-230,-230,220,93,M,Дмитрий Кашин,Single-ply,Open,B,220
1,Vitaliy Kireev,1985,96.55,275,285,297.5,297.5,105,M,Виталий Киреев,Single-ply,Open,B,297.5
2,Levon Tavakalov,1988,104.85,287.5,297.5,-305,297.5,105,M,Левон Тавакалов,Single-ply,Open,B,297.5
3,Andrey Zhuravlev,1988,97.5,285,295,-305,295,105,M,Андрей Журавлев,Single-ply,Open,B,295
4,Pavel Berlin,1986,104.2,280,-285,-287.5,280,105,M,Павел Берлин,Single-ply,Open,B,280
5,Ruslan Pavlikov,1978,104.75,-280,280,-297.5,280,105,M,Руслан Павликов,Single-ply,Open,B,280
6,Aleksey Zamyatkin,1980,100.4,-270,270,-280,270,105,M,Алексей Замяткин,Single-ply,Open,B,270
7,Artem Nechaev,1985,104,-270,270,-287.5,270,105,M,Артем Нечаев,Single-ply,Open,B,270
8,Sergey Vakhrushin,1978,104.2,245,255,-260,255,105,M,Сергей Вахрушин,Single-ply,Open,B,255
9,Konstantin Kuznetsov,1972,104.8,255,-265,-272.5,255,105,M,Константин Кузнецов,Single-ply,Open,B,255
10,Oleg Ivoylov,1973,99.85,225,235,-240,235,105,M,Олег Ивойлов,Single-ply,Open,B,235
11,Oleg Mashinin,1974,104.2,225,-235,-235,225,105,M,Олег Машинин,Single-ply,Open,B,225
12,Sergey Khromov,1973,100.8,210,-217.5,217.5,217.5,105,M,Сергей Хромов,Single-ply,Open,B,217.5
13,Evgeniy Akhmedov,1980,102.1,-217.5,217.5,-227.5,217.5,105,M,Евгений Ахмедов,Single-ply,Open,B,217.5
DQ,Ramil Yakubov,1983,104.05,-260,-265,-265,,105,M,Рамиль Якубов,Single-ply,Open,B,
1,Sergey Selezen,1980,119.95,290,297.5,-315.5,297.5,120,M,Сергей Селезень,Single-ply,Open,B,297.5
2,Konstantin Lesukov,1979,117.65,275,290,292.5,292.5,120,M,Константин Лесуков,Single-ply,Open,B,292.5
3,Pavel Kolokhin,1984,117.6,-275,275,290,290,120,M,Павел Колохин,Single-ply,Open,B,290
4,Sergey Stepanenko,1974,119.65,265,275,-280,275,120,M,Сергей Степаненко,Single-ply,Open,B,275
5,Igor Finogin,1977,114.1,255,262.5,272.5,272.5,120,M,Игорь Финогин,Single-ply,Open,B,272.5
6,Oleg Bokarev,1965,112.7,250,260,270,270,120,M,Олег Бокарев,Single-ply,Open,B,270
7,Andrey Komissarov,1984,116.65,250,-257.5,-257.5,250,120,M,Андрей Комиссаров,Single-ply,Open,B,250
8,Roman Atanov,1973,110.95,220,230,235,235,120,M,Роман Атанов,Single-ply,Open,B,235
DQ,Aleksey Norkin,1966,107.2,-247.5,-247.5,-247.5,,120,M,Алексей Норкин,Single-ply,Open,B,
DQ,Aleksey Malunin,1978,113.15,-290,-290,-297.5,,120,M,Алексей Малунин,Single-ply,Open,B,
DD,Aleksandr Sykmenyov,1978,116.85,305,315,325,325,120,M,Александр Сыкменёв,Single-ply,Open,B,
1,Andrey Konovalov #1,1986,159.75,320,330,-340,330,120+,M,Андрей Коновалов,Single-ply,Open,B,330
2,Vladislav Solovyev,1987,142.5,307.5,315,-320,315,120+,M,Владислав Соловьев,Single-ply,Open,B,315
3,Yuriy Drachev,1982,124.6,285,300,-315,300,120+,M,Юрий Драчёв,Single-ply,Open,B,300
4,Roman Abidzhba,1988,137.2,300,-310,-320,300,120+,M,Роман Абиджба,Single-ply,Open,B,300
5,Sergey Pavlov,1982,130.95,-280,280,-287.5,280,120+,M,Сергей Павлов,Single-ply,Open,B,280
6,Andrey Malyshev,1964,137.85,280,-310,-315,280,120+,M,Андрей Малышев,Single-ply,Open,B,280
7,Aleksey Mikhalev,1984,148.65,270,-282.5,-282.5,270,120+,M,Алексей Михалев,Single-ply,Open,B,270
8,Yuriy Vasilyev,1986,138.8,240,245,-252.5,245,120+,M,Юрій Васильєв,Single-ply,Open,B,245
DQ,Karen Danilyan,1976,172.9,-320,-320,-322.5,,120+,M,Карен Данилян,Single-ply,Open,B,
DQ,Vitaliy Morozevich,1966,176.75,-285,-285,-295,,120+,M,Виталий Морозевич,Single-ply,Open,B,
1,Yana Zadorina,1982,46,-97.5,-97.5,105,105,47,F,Яна Задорина,Single-ply,Open,B,105
2,Anastasya Strufa,1986,46.65,100,105,-110,105,47,F,Анастасия Струфа,Single-ply,Open,B,105
3,Olga Golubeva,1970,46.6,97.5,102.5,-105,102.5,47,F,Ольга Голубева,Single-ply,Open,B,102.5
4,Karina Simonyants,1977,46.7,95,100,-107.5,100,47,F,Карина Симонянц,Single-ply,Open,B,100
5,Natalya Krikunova,1981,46.7,70,-72.5,-72.5,70,47,F,Наталья Крикунова,Single-ply,Open,B,70
DQ,Viktoriya Martynova,1985,46.8,-87.5,-87.5,-87.5,,47,F,Виктория Мартынова,Single-ply,Open,B,
1,Natalia Salnikova,1986,50.5,115,125,131,131,52,F,Наталья Сальникова,Single-ply,Open,B,131
2,Elena Abalmazova,1986,51.9,85,90,95,95,52,F,Елена Абалмазова,Single-ply,Open,B,95
3,Anna Govorova,1979,49,72.5,75,80,80,52,F,Анна Говорова,Single-ply,Open,B,80
4,Aleksandra Makarova,1988,51.05,65,-70,-70,65,52,F,Александра Макарова,Single-ply,Open,B,65
1,Larisa Kotkova,1974,55.2,145,150,155,155,57,F,Лариса Коткова,Single-ply,Open,B,155
2,Anastasia Petrova,1985,56.7,125,135,-145,135,57,F,Анастасия Петрова,Single-ply,Open,B,135
3,Ekaterina Nikolaeva,1984,56.25,105,110,115,115,57,F,Екатерина Николаева,Single-ply,Open,B,115
4,Olesya Kononovich,1987,56.95,90,97.5,100,100,57,F,Олеся Кононович,Single-ply,Open,B,100
1,Irina Poletaeva,1982,62.75,-152.5,152.5,158,158,63,F,Ирина Полетаева,Single-ply,Open,B,158
2,Maria Dubenskaya,1988,61.25,-140,140,147.5,147.5,63,F,Мария Дубенская,Single-ply,Open,B,147.5
3,Yuliya Speranskaya,1981,61.1,-142.5,-145,145,145,63,F,Юлия Сперанская,Single-ply,Open,B,145
4,Valentina Nelyubova,1966,62.3,135,145,-150,145,63,F,Валентина Нелюбова,Single-ply,Open,B,145
1,Yulia Medvedeva,1986,66.7,160,170,177.5,177.5,72,F,Юлия Медведева,Single-ply,Open,B,177.5
2,Galina Lyubeznaya,1980,67.1,167.5,175,177.5,177.5,72,F,Галина Любезная,Single-ply,Open,B,177.5
3,Natalya Samarina,1984,67.55,170,-177.5,-177.5,170,72,F,Наталья Самарина,Single-ply,Open,B,170
4,Svetlana Fokina,1979,71,130,137.5,142.5,142.5,72,F,Светлана Фокина,Single-ply,Open,B,142.5
5,Yuliya Bakulina,1982,71.8,120,130,-140,130,72,F,Юлия Бакулина,Single-ply,Open,B,130
6,Ellina Kudryavtseva,1975,71.85,110,-115,115,115,72,F,Эллина Кудрявцева,Single-ply,Open,B,115
1,Lyudmila Protchenko,1986,76.65,150,157.5,162.5,162.5,84,F,Людмила Протченко,Single-ply,Open,B,162.5
2,Natalya Chekhovskaya,1975,82.95,-145,145,152.5,152.5,84,F,Наталья Чеховская,Single-ply,Open,B,152.5
3,Viktoriya Poltoratskaya,1981,76.3,137.5,145,150,150,84,F,Виктория Полторацкая,Single-ply,Open,B,150
4,Mariya Volkova,1972,72.05,147.5,-150,-155,147.5,84,F,Мария Волкова,Single-ply,Open,B,147.5
5,Svetlana Tsvetkova,1980,75.4,140,145,-152.5,145,84,F,Светлана Цветкова,Single-ply,Open,B,145
6,Tatyana Ivanova,1972,82.1,130,137.5,145,145,84,F,Татьяна Иванова,Single-ply,Open,B,145
7,Natalya Silakova,1971,78.2,85,92.5,-95,92.5,84,F,Наталья Силакова,Single-ply,Open,B,92.5
DD,Irina Grishanova,1984,83.8,147.5,152.5,155,155,84,F,Ирина Гришанова,Single-ply,Open,B,
1,Natalya Zotova-Payusova,1975,124.7,185,195,200,200,84+,F,Наталья Зотова,Single-ply,Open,B,200
2,Svetlana Sema,1976,92.05,155,162.5,170,170,84+,F,Светлана Сема,Single-ply,Open,B,170
3,Olga Gemaletdinova,1986,121.5,162.5,170,-172.5,170,84+,F,Ольга Гемалетдинова,Single-ply,Open,B,170
4,Yevgeniya Shabanova,1977,92.7,145,-157.5,-157.5,145,84+,F,Евгения Шабанова,Single-ply,Open,B,145
5,Mariya Zyryanova,1983,123.85,145,-157.5,-157.5,145,84+,F,Мария Зырянова,Single-ply,Open,B,145
DD,Irina Lugovaya,1974,107.85,185,195,-200,195,84+,F,Ирина Луговая,Single-ply,Open,B,
