Division,WeightClassKg,Place,Name,Team,BodyweightKg,Best3SquatKg,Best3BenchKg,Best3DeadliftKg,TotalKg,Equipment,Event,Sex
Boys,51.71,1,Kyle Hendrix,Weatherford,51.26,88.45,63.5,92.99,244.94,Single-ply,SBD,M
Boys,55.79,1,Canalas,Fort Worth Chisholm Trail,55.34,97.52,56.7,68.04,222.26,Single-ply,SBD,M
Boys,59.87,1,Fred Brownlee,Weatherford,58.06,131.54,83.91,136.08,351.53,Single-ply,SBD,M
Boys,59.87,2,Nick Thomas #4,Weatherford,58.06,124.74,68.04,127.01,319.78,Single-ply,SBD,M
Boys,59.87,3,Clark,Fort Worth Chisholm Trail,58.97,104.33,70.31,111.13,285.76,Single-ply,SBD,M
Boys,59.87,4,Frantzen,Fort Worth Chisholm Trail,58.97,102.06,61.23,113.4,276.69,Single-ply,SBD,M
Boys,59.87,5,Craver,Fort Worth Chisholm Trail,58.97,,61.23,106.59,167.83,Single-ply,BD,M
Boys,67.13,1,Ricardo Camas,Weatherford,67.13,147.42,97.52,158.76,403.7,Single-ply,SBD,M
Boys,67.13,2,Manuel Rosas,Weatherford,66.68,129.27,95.25,131.54,356.07,Single-ply,SBD,M
Boys,67.13,3,Eugene Geis,Granbury,61.23,113.4,79.38,158.76,351.53,Single-ply,SBD,M
Boys,67.13,4,Zach Cain,Granbury,63.5,113.4,86.18,136.08,335.66,Single-ply,SBD,M
Boys,67.13,5,McCleveland,Fort Worth Chisholm Trail,66.68,113.4,65.77,136.08,315.25,Single-ply,SBD,M
Boys,67.13,6,Macon,Fort Worth Chisholm Trail,66.68,111.13,61.23,142.88,315.25,Single-ply,SBD,M
Boys,67.13,7,Bj Johnson,Granbury,63.96,104.33,68.04,117.93,290.3,Single-ply,SBD,M
Boys,74.84,1,Dusty Schauers,Weatherford,71.67,174.63,92.99,172.37,439.98,Single-ply,SBD,M
Boys,74.84,2,Draven Pointer,Weatherford,72.57,147.42,102.06,167.83,417.3,Single-ply,SBD,M
Boys,74.84,3,Phillips,Fort Worth Chisholm Trail,74.39,163.29,88.45,158.76,410.5,Single-ply,SBD,M
Boys,74.84,4,Joseph,Fort Worth Chisholm Trail,73.94,122.47,65.77,142.88,331.12,Single-ply,SBD,M
Boys,82.1,1,Daniel Valdez,Granbury,81.19,190.51,99.79,161.03,451.32,Single-ply,SBD,M
Boys,82.1,2,Jesse Valdez,Granbury,77.56,154.22,102.06,147.42,403.7,Single-ply,SBD,M
Boys,82.1,3,Brown,Fort Worth Chisholm Trail,81.19,136.08,81.65,163.29,381.02,Single-ply,SBD,M
Boys,82.1,4,Chris Humphureys,Weatherford,78.47,,83.91,154.22,238.14,Single-ply,BD,M
Boys,89.81,1,Mike Milson,Granbury,86.18,188.24,129.27,172.37,489.88,Single-ply,SBD,M
Boys,89.81,2,Garrett Hadley,Weatherford,84.82,176.9,115.67,192.78,485.34,Single-ply,SBD,M
Boys,89.81,3,Wesley May,Weatherford,86.18,158.76,102.06,181.44,442.25,Single-ply,SBD,M
Boys,89.81,4,Grants Werts,Weatherford,89.36,145.15,97.52,181.44,424.11,Single-ply,SBD,M
Boys,89.81,5,James Milson,Granbury,83.01,142.88,90.72,163.29,396.89,Single-ply,SBD,M
Boys,89.81,6,Chase Shipman,Granbury,88.45,149.69,90.72,145.15,385.55,Single-ply,SBD,M
Boys,89.81,7,May,Fort Worth Chisholm Trail,89.36,129.27,79.38,136.08,344.73,Single-ply,SBD,M
Boys,89.81,8,Jones,Fort Worth Chisholm Trail,89.36,113.4,61.23,147.42,322.05,Single-ply,SBD,M
Boys,89.81,9,Villalovous,Fort Worth Chisholm Trail,89.36,151.95,,145.15,297.1,Single-ply,SD,M
Boys,99.79,1,Clayton Hensley,Weatherford,97.52,197.31,149.69,204.12,551.11,Single-ply,SBD,M
Boys,99.79,2,Kent Sanner,Weatherford,97.07,174.63,127.01,197.31,498.95,Single-ply,SBD,M
Boys,99.79,3,Hernandez,Fort Worth Chisholm Trail,98.88,172.37,95.25,158.76,426.38,Single-ply,SBD,M
Boys,99.79,4,Levi Miller,Weatherford,90.72,145.15,102.06,142.88,390.09,Single-ply,SBD,M
Boys,99.79,5,Wyatt Everett,Granbury,92.53,108.86,90.72,142.88,342.46,Single-ply,SBD,M
Boys,99.79,6,Osteen,Fort Worth Chisholm Trail,99.34,102.06,88.45,136.08,326.59,Single-ply,SBD,M
Boys,99.79,7,Jason Washington,Weatherford,97.07,158.76,,163.29,322.05,Single-ply,SD,M
Boys,109.77,1,Jay Powell,Weatherford,102.97,197.31,129.27,197.31,523.9,Single-ply,SBD,M
Boys,109.77,2,Brandon Lane,Granbury,102.06,190.51,122.47,201.85,514.83,Single-ply,SBD,M
Boys,109.77,3,Landon Lambert,Granbury,107.95,165.56,106.59,170.1,442.25,Single-ply,SBD,M
Boys,109.77,4,Alex Balboa,Granbury,104.33,149.69,106.59,165.56,421.84,Single-ply,SBD,M
Boys,109.77,5,Lee,Fort Worth Chisholm Trail,107.95,167.83,81.65,158.76,408.23,Single-ply,SBD,M
Boys,109.77,6,Saldino,Fort Worth Chisholm Trail,108.86,131.54,104.33,136.08,371.95,Single-ply,SBD,M
Boys,124.74,1,Jordan Papke,Granbury,119.75,158.76,106.59,154.22,419.57,Single-ply,SBD,M
Boys,124.74,2,Briley Pena,Granbury,120.66,129.27,90.72,158.76,378.75,Single-ply,SBD,M
Boys,124.74,3,Ben Desrochers,Weatherford,115.67,124.74,,115.67,240.4,Single-ply,SD,M
Boys,124.74+,1,Jace Ford,Weatherford,131.54,215.46,127.01,204.12,546.58,Single-ply,SBD,M
Boys,124.74+,2,Horrell,Fort Worth Chisholm Trail,127.01,165.56,165.56,147.42,478.54,Single-ply,SBD,M
Boys,124.74+,3,Pavlik,Fort Worth Chisholm Trail,129.27,99.79,88.45,136.08,324.32,Single-ply,SBD,M
