Division,WeightClassKg,Place,Name,Team,BodyweightKg,Best3SquatKg,Best3BenchKg,Best3DeadliftKg,TotalKg,Equipment,Event,Sex,BirthDate
Girls,44.23,1,Austyn Hance,Azle,42.64,97.52,43.09,95.25,235.87,Single-ply,SBD,F,
Girls,44.23,2,Angie Herrera,Glen Rose,42.18,83.91,43.09,97.52,224.53,Single-ply,SBD,F,
Girls,47.85,1,Mackenzie Benton,Azle,47.4,95.25,52.16,83.91,231.33,Single-ply,SBD,F,
Girls,47.85,2,Sofia Padilla,Saginaw,47.63,92.99,40.82,95.25,229.06,Single-ply,SBD,F,
Girls,47.85,3,Madeline Azcona,Justin Northwest,46.95,56.7,38.56,70.31,165.56,Single-ply,SBD,F,
Girls,51.94,1,Madelynn Rezabek,Azle,50.8,99.79,58.97,108.86,267.62,Single-ply,SBD,F,
Girls,51.94,2,Alondra Ortiz,Saginaw,48.76,97.52,52.16,111.13,260.82,Single-ply,SBD,F,
Girls,51.94,3,Taya Pope,Azle,49.67,86.18,47.63,117.93,251.74,Single-ply,SBD,F,
Girls,51.94,4,Mia Rodriguez,Saginaw,48.08,79.38,43.09,97.52,219.99,Single-ply,SBD,F,
Girls,51.94,5,Alex Acuna,Fort Worth Boswell,51.03,72.57,36.29,72.57,181.44,Single-ply,SBD,F,
Girls,56.02,1,Emilee Brown,Granbury,55.79,113.4,68.04,124.74,306.17,Single-ply,SBD,F,
Girls,56.02,2,Monai Owens,Azle,55.79,127.01,54.43,122.47,303.91,Single-ply,SBD,F,
Girls,56.02,3,Abby Green,Glen Rose,54.43,102.06,52.16,117.93,272.16,Single-ply,SBD,F,
Girls,56.02,4,Madeline Kirkley,Glen Rose,55.79,104.33,47.63,97.52,249.48,Single-ply,SBD,F,
Girls,56.02,5,Nayelin Feliz,Saginaw,55.79,95.25,36.29,92.99,224.53,Single-ply,SBD,F,
Girls,56.02,6,Kayleigh Wadsworth,Granbury,55.79,61.23,49.9,86.18,197.31,Single-ply,SBD,F,
Girls,56.02,7,Brianna Head,Granbury,55.79,61.23,45.36,83.91,190.51,Single-ply,SBD,F,
Girls,56.02,8,Jenna Chapman,Justin Northwest,53.07,74.84,45.36,68.04,188.24,Single-ply,SBD,F,
Girls,56.02,9,Chloe Heick,Saginaw,55.79,74.84,24.95,74.84,174.63,Single-ply,SBD,F,
Girls,56.02,10,Dana Risher,Fort Worth Chisholm Trail,54.43,56.7,27.22,70.31,154.22,Single-ply,SBD,F,
Girls,56.02,DQ,Tea Rodriguez,Saginaw,53.07,,,,,Single-ply,SBD,F,
Girls,60.1,1,Brie Michelli,Azle,59.19,124.74,58.97,117.93,301.64,Single-ply,SBD,F,
Girls,60.1,2,Rachel Baumann,Azle,58.74,113.4,58.97,113.4,285.76,Single-ply,SBD,F,
Girls,60.1,3,Shelby Irons,Northwest Eaton,58.29,113.4,56.7,108.86,278.96,Single-ply,SBD,F,
Girls,60.1,4,Jasmine Tung,Saginaw,57.61,99.79,49.9,122.47,272.16,Single-ply,SBD,F,
Girls,60.1,5,Emery Brewer,Glen Rose,57.38,108.86,47.63,104.33,260.82,Single-ply,SBD,F,
Girls,60.1,6,Skylan Mills,Justin Northwest,58.97,88.45,43.09,124.74,256.28,Single-ply,SBD,F,
Girls,60.1,7,Bailee Boyett,Glen Rose,58.51,102.06,47.63,95.25,244.94,Single-ply,SBD,F,
Girls,60.1,8,Telvee Marvie,Fort Worth Boswell,58.51,81.65,54.43,108.86,244.94,Single-ply,SBD,F,
Girls,60.1,9,Jennifer Gfrerer,Saginaw,59.42,92.99,45.36,97.52,235.87,Single-ply,SBD,F,
Girls,60.1,10,Madison McGinnis,Justin Northwest,58.29,90.72,43.09,99.79,233.6,Single-ply,SBD,F,
Girls,60.1,11,Devin Beck,Fort Worth Chisholm Trail,57.38,90.72,36.29,102.06,229.06,Single-ply,SBD,F,
Girls,60.1,12,Sandya Magar,Saginaw,57.83,83.91,29.48,92.99,206.38,Single-ply,SBD,F,
Girls,60.1,13,Christina Ropa,Fort Worth Chisholm Trail,58.97,72.57,40.82,81.65,195.04,Single-ply,SBD,F,
Girls,67.36,1,Debra Lester,Azle,67.36,138.35,79.38,131.54,349.27,Single-ply,SBD,F,
Girls,67.36,2,Madison Tamjidi,Azle,65.77,138.35,72.57,131.54,342.46,Single-ply,SBD,F,
Girls,67.36,3,Joi Dunn,Justin Northwest,62.6,108.86,56.7,117.93,283.5,Single-ply,SBD,F,
Girls,67.36,4,Jennifer Salerno,Justin Northwest,64.41,115.67,52.16,113.4,281.23,Single-ply,SBD,F,
Girls,67.36,5,Kenlee Blackmon,Northwest Eaton,67.13,104.33,58.97,115.67,278.96,Single-ply,SBD,F,
Girls,67.36,6,Liz Locke,Glen Rose,64.86,108.86,49.9,115.67,274.42,Single-ply,SBD,F,
Girls,67.36,7,Emily Meador,Justin Northwest,62.6,97.52,52.16,113.4,263.08,Single-ply,SBD,F,
Girls,67.36,8,Emma Castillo,Granbury,64.41,106.59,54.43,95.25,256.28,Single-ply,SBD,F,
Girls,67.36,9,Kylee Kolb,Northwest Eaton,63.96,99.79,52.16,97.52,249.48,Single-ply,SBD,F,
Girls,67.36,10,Kaitlyn Marsh,Justin Northwest,65.54,102.06,40.82,99.79,242.67,Single-ply,SBD,F,
Girls,67.36,11,Liliana Vasquez,Fort Worth Chisholm Trail,65.09,90.72,40.82,106.59,238.14,Single-ply,SBD,F,
Girls,67.36,12,Jessica Santascoy,Northwest Eaton,67.13,86.18,38.56,97.52,222.26,Single-ply,SBD,F,
Girls,67.36,13,Jewell O'Connor,Fort Worth Chisholm Trail,61.92,77.11,43.09,83.91,204.12,Single-ply,SBD,F,
Girls,67.36,14,Kate Ishema,Saginaw,66.9,65.77,40.82,88.45,195.04,Single-ply,SBD,F,
Girls,67.36,15,Rosemary Avila,Fort Worth Chisholm Trail,63.5,68.04,27.22,72.57,167.83,Single-ply,SBD,F,
Girls,75.07,1,Cadence Lincoln,Justin Northwest,74.16,149.69,65.77,145.15,360.61,Single-ply,SBD,F,
Girls,75.07,2,Aubrie Norton,Azle,71.67,145.15,74.84,127.01,347,Single-ply,SBD,F,
Girls,75.07,3,Brittany Proctor,Granbury,74.84,122.47,61.23,136.08,319.78,Single-ply,SBD,F,
Girls,75.07,4,Nasira Kpawa,Saginaw,70.76,111.13,40.82,142.88,294.84,Single-ply,SBD,F,
Girls,75.07,5,Sophia Thompson,Justin Northwest,69.4,115.67,49.9,113.4,278.96,Single-ply,SBD,F,
Girls,75.07,6,Mia Skelton,Northwest Eaton,74.39,115.67,52.16,108.86,276.69,Single-ply,SBD,F,
Girls,75.07,7,Nadia Brockway,Northwest Eaton,74.84,113.4,49.9,113.4,276.69,Single-ply,SBD,F,
Girls,75.07,8,Emma Ragon,Glen Rose,73.48,90.72,45.36,113.4,249.48,Single-ply,SBD,F,
Girls,75.07,9,Adrianna Corbin,Saginaw,72.57,77.11,38.56,111.13,226.8,Single-ply,SBD,F,
Girls,75.07,10,Joanna Avila,Fort Worth Chisholm Trail,70.76,79.38,36.29,86.18,201.85,Single-ply,SBD,F,
Girls,75.07,11,Michelle Rodriguez,Fort Worth Chisholm Trail,69.85,61.23,22.68,61.23,145.15,Single-ply,SBD,F,
Girls,82.33,1,Reyna Alcantar,Azle,82.1,161.03,88.45,147.42,396.89,Single-ply,SBD,F,
Girls,82.33,2,Sahnee Dillahunt,Northwest Eaton,82.1,133.81,58.97,142.88,335.66,Single-ply,SBD,F,
Girls,82.33,3,Tiffani Adams,Fort Worth Chisholm Trail,77.11,136.08,61.23,131.54,328.85,Single-ply,SBD,F,
Girls,82.33,DQ,Viviana Sandoval,Granbury,82.1,138.35,,,,Single-ply,SBD,F,
Girls,82.33,DQ,Emily Sharpley,Granbury,82.1,,,,,Single-ply,SBD,F,
Girls,90.04,1,Paige Mooney,Northwest Eaton,89.81,138.35,63.5,136.08,337.93,Single-ply,SBD,F,
Girls,90.04,2,Ciclali Rodriguez,Glen Rose,89.81,136.08,58.97,120.2,315.25,Single-ply,SBD,F,
Girls,90.04,3,Holly Hodges,Granbury,89.81,113.4,63.5,136.08,312.98,Single-ply,SBD,F,
Girls,90.04,4,Maryann Matt,Azle,89.81,122.47,68.04,115.67,306.17,Single-ply,SBD,F,
Girls,90.04,5,Erekah Mendez,Glen Rose,83.23,113.4,52.16,124.74,290.3,Single-ply,SBD,F,
Girls,90.04,6,Anne Barnes,Granbury,89.81,90.72,49.9,113.4,254.01,Single-ply,SBD,F,
Girls,100.02,1,Courtney Chapman,Glen Rose,92.31,158.76,70.31,158.76,387.82,Single-ply,SBD,F,
Girls,100.02,2,Michaela Cary,Granbury,91.17,122.47,56.7,142.88,322.05,Single-ply,SBD,F,
Girls,100.02,3,Sephreana Hattenbach,Granbury,97.07,95.25,70.31,108.86,274.42,Single-ply,SBD,F,
Girls,100.02,DQ,Savanna Cruz,Granbury,100.02,108.86,65.77,,,Single-ply,SBD,F,
Girls,117.71,1,Kaelyn McCullough,Justin Northwest,114.31,154.22,81.65,131.54,367.41,Single-ply,SBD,F,
Girls,117.71,2,Austin Woolard,Glen Rose,114.53,145.15,74.84,136.08,356.07,Single-ply,SBD,F,
Girls,117.71,3,Carrie Fulton,Justin Northwest,102.06,124.74,70.31,115.67,310.71,Single-ply,SBD,F,
Girls,117.71+,1,Trinity Hall,Azle,117.93,192.78,90.72,151.95,435.45,Single-ply,SBD,F,
Girls,117.71+,2,Mallory Alexander,Glen Rose,117.93,149.69,77.11,129.27,356.07,Single-ply,SBD,F,
