Name,WeightClassKg,Division,Sex,Best3SquatKg,Best3BenchKg,Best3DeadliftKg,TotalKg,Event,Equipment,Place
T. Spearman,52,Open,M,115,87.5,130,332.5,SBD,Single-ply,1
J. Pacelli,56,Open,M,125,92.5,165,382.5,SBD,Single-ply,1
Marsha Fort,56,Open,F,97.5,52.5,132.5,282.5,SBD,Single-ply,2
S. Darren,56,Open,M,,,,,SBD,Single-ply,DQ
R. Atkinson,60,Open,M,195,142.5,172.5,510,SBD,Single-ply,1
John Edenfield,60,Open,M,197.5,110,185,492.5,SBD,Single-ply,2
J. Geer,60,Open,M,137.5,105,170,412.5,SBD,Single-ply,3
Ausby Alexander,67.5,Open,M,260,155,267.5,682.5,SBD,Single-ply,1
N. Short,67.5,Open,M,212.5,127.5,227.5,567.5,SBD,Single-ply,2
E. Tenney,67.5,Open,M,170,122.5,215,507.5,SBD,Single-ply,3
R. Hutford,67.5,Open,M,167.5,110,200,477.5,SBD,Single-ply,4
D. Lilly,67.5,Open,M,157.5,125,172.5,455,SBD,Single-ply,5
Sam Pardue,75,Open,M,247.5,172.5,247.5,667.5,SBD,Single-ply,1
Randy Smith,75,Open,M,227.5,147.5,255,630,SBD,Single-ply,2
W. Fair,75,Open,M,227.5,122.5,250,600,SBD,Single-ply,3
R. Glinski,75,Open,M,217.5,155,227.5,600,SBD,Single-ply,4
M. Weger,75,Open,M,192.5,140,250,582.5,SBD,Single-ply,5
E. Bell,75,Open,M,237.5,102.5,237.5,577.5,SBD,Single-ply,6
Phil Roper,75,Open,M,212.5,127.5,222.5,562.5,SBD,Single-ply,7
Rick Quarles,75,Open,M,205,117.5,222.5,545,SBD,Single-ply,8
Clealan Watts,82.5,Open,M,282.5,165,275,722.5,SBD,Single-ply,1
G. Achille,82.5,Open,M,245,160,275,680,SBD,Single-ply,2
L. Kirby,82.5,Open,M,250,167.5,262.5,680,SBD,Single-ply,3
Fred Graham,82.5,Open,M,237.5,145,282.5,665,SBD,Single-ply,4
Mike Apps,82.5,Open,M,227.5,147.5,267.5,642.5,SBD,Single-ply,5
Tee Meyers,82.5,Open,M,235,140,265,640,SBD,Single-ply,6
S. Jones,82.5,Open,M,245,122.5,247.5,615,SBD,Single-ply,7
J. Hutchins,82.5,Open,M,247.5,,,,SBD,Single-ply,DQ
John Cappola,90,Open,M,300,177.5,300,777.5,SBD,Single-ply,1
Darrell Carnes,90,Open,M,267.5,197.5,302.5,767.5,SBD,Single-ply,2
Will Washington,90,Open,M,287.5,162.5,262.5,712.5,SBD,Single-ply,3
J. Fielden,90,Open,M,222.5,177.5,262.5,662.5,SBD,Single-ply,4
B. Glymph,90,Open,M,205,200,245,650,SBD,Single-ply,5
Bobo Eason,100,Open,M,320,170,305,795,SBD,Single-ply,1
Jerry Beckham,100,Open,M,292.5,190,287.5,770,SBD,Single-ply,2
Steve Nimmons,100,Open,M,242.5,227.5,250,720,SBD,Single-ply,3
M. Williams,100,Open,M,260,157.5,265,682.5,SBD,Single-ply,4
A. Wilbanks,100,Open,M,220,145,240,605,SBD,Single-ply,5
D. Samuel,100,Open,M,255,,,,SBD,Single-ply,DQ
Eric Redding,100,Open,M,,,,,SBD,Single-ply,DQ
Jimmy Payne,110,Open,M,292.5,172.5,302.5,767.5,SBD,Single-ply,1
Daniel Hammonds,110,Open,M,260,205,292.5,757.5,SBD,Single-ply,2
D. Goff,110,Open,M,295,167.5,287.5,750,SBD,Single-ply,3
Kevin Bray,110,Open,M,255,182.5,287.5,725,SBD,Single-ply,4
Larry Vickrey,110,Open,M,257.5,182.5,285,725,SBD,Single-ply,5
L. Duncan,110,Open,M,275,170,272.5,717.5,SBD,Single-ply,6
J. McEntire,110,Open,M,272.5,180,257.5,710,SBD,Single-ply,7
J. Bryant,110,Open,M,250,142.5,295,687.5,SBD,Single-ply,8
W. Jordan,110,Open,M,237.5,172.5,275,685,SBD,Single-ply,9
L. Clark,110,Open,M,,,,,SBD,Single-ply,DQ
Doug Ricafrente,125,Open,M,320,217.5,310,847.5,SBD,Single-ply,1
James Gregory #2,125,Open,M,295,227.5,305,827.5,SBD,Single-ply,2
M. Wyley,125,Open,M,290,162.5,307.5,760,SBD,Single-ply,3
D. Fusci,125,Open,M,257.5,187.5,275,720,SBD,Single-ply,4
L. Porter,125,Open,M,275,170,240,685,SBD,Single-ply,5
David Fitchpatrick,125,Open,M,305,215,,,SBD,Single-ply,DQ
D. Wright,125+,Open,M,280,190,310,780,SBD,Single-ply,1
N. Ervin,125+,Open,M,227.5,137.5,227.5,592.5,SBD,Single-ply,2
D. Hall,52,Novice,M,87.5,42.5,107.5,237.5,SBD,Single-ply,1
G. Gillespie,56,Novice,M,110,85,145,340,SBD,Single-ply,1
Marsha Fort,56,Novice,F,97.5,52.5,132.5,282.5,SBD,Single-ply,2
J. Azzara,60,Novice,M,155,95,165,415,SBD,Single-ply,1
J. Geer,60,Novice,M,137.5,105,170,412.5,SBD,Single-ply,2
C. Livingston,60,Novice,M,130,85,165,380,SBD,Single-ply,3
J. Rodriguez,60,Novice,M,92.5,77.5,147.5,317.5,SBD,Single-ply,4
S. Callahan,60,Novice,M,130,,,,SBD,Single-ply,DQ
N. Short,67.5,Novice,M,212.5,127.5,227.5,567.5,SBD,Single-ply,1
E. Tenney,67.5,Novice,M,170,122.5,215,507.5,SBD,Single-ply,2
J. Christian,67.5,Novice,M,170,137.5,185,492.5,SBD,Single-ply,3
D. Youngblood,67.5,Novice,M,185,102.5,187.5,475,SBD,Single-ply,4
G. Evans,67.5,Novice,M,162.5,120,190,472.5,SBD,Single-ply,5
D. Lilly,67.5,Novice,M,157.5,125,172.5,455,SBD,Single-ply,6
C. Christian,67.5,Novice,M,145,115,175,435,SBD,Single-ply,7
R. Armentrout,67.5,Novice,M,135,97.5,150,382.5,SBD,Single-ply,8
M. Weger,75,Novice,M,192.5,140,250,582.5,SBD,Single-ply,1
V. Smiddy,75,Novice,M,212.5,147.5,220,580,SBD,Single-ply,2
Phil Roper,75,Novice,M,212.5,127.5,222.5,562.5,SBD,Single-ply,3
K. Ridenhour,75,Novice,M,185,125,192.5,502.5,SBD,Single-ply,5
T. Merck,75,Novice,M,180,135,187.5,502.5,SBD,Single-ply,6
D. Fugate,75,Novice,M,177.5,135,195,507.5,SBD,Single-ply,4
R. Morse,75,Novice,M,142.5,92.5,185,420,SBD,Single-ply,7
B. Holcombe,82.5,Novice,M,230,162.5,247.5,640,SBD,Single-ply,1
S. Jones,82.5,Novice,M,245,122.5,247.5,615,SBD,Single-ply,2
T. Williams,82.5,Novice,M,235,132.5,240,607.5,SBD,Single-ply,3
C. Petty,82.5,Novice,M,240,137.5,207.5,585,SBD,Single-ply,4
Eldred Byrd,82.5,Novice,M,210,142.5,222.5,575,SBD,Single-ply,5
P. Webb,82.5,Novice,M,222.5,127.5,222.5,572.5,SBD,Single-ply,6
C. Johnson,82.5,Novice,M,230,125,215,570,SBD,Single-ply,7
R. Graft,82.5,Novice,M,207.5,132.5,227.5,567.5,SBD,Single-ply,8
W. Hagans,82.5,Novice,M,215,112.5,232.5,560,SBD,Single-ply,9
D. Rogers,82.5,Novice,M,195,120,220,535,SBD,Single-ply,10
R. Brock,82.5,Novice,M,192.5,145,192.5,530,SBD,Single-ply,11
T. Greene,82.5,Novice,M,185,107.5,235,527.5,SBD,Single-ply,12
T. Craig,82.5,Novice,M,190,110,200,500,SBD,Single-ply,13
M. Williams,82.5,Novice,M,155,125,187.5,467.5,SBD,Single-ply,14
J. Gillespie,82.5,Novice,M,132.5,92.5,182.5,407.5,SBD,Single-ply,15
M. Wapole,82.5,Novice,M,227.5,,,,SBD,Single-ply,DQ
Curtis Leslie,90,Novice,M,267.5,170,262.5,700,SBD,Single-ply,1
Ricard McClain,90,Novice,M,237.5,137.5,245,620,SBD,Single-ply,2
Lary Hogue,90,Novice,M,197.5,165,250,612.5,SBD,Single-ply,3
G. Hollinger,90,Novice,M,237.5,132.5,240,610,SBD,Single-ply,4
Z. Pegram,90,Novice,M,215,157.5,227.5,600,SBD,Single-ply,5
G. Warren,90,Novice,M,202.5,162.5,230,595,SBD,Single-ply,6
K. Vinson,90,Novice,M,192.5,155,230,577.5,SBD,Single-ply,7
D. Watson,90,Novice,M,197.5,122.5,237.5,557.5,SBD,Single-ply,8
W. Murray,90,Novice,M,210,142.5,195,547.5,SBD,Single-ply,9
W. Burbage,90,Novice,M,210,110,195,515,SBD,Single-ply,10
M. Long,90,Novice,M,167.5,130,187.5,485,SBD,Single-ply,11
K. Gibson,90,Novice,M,197.5,,,,SBD,Single-ply,DQ
A. Hirschlenson,90,Novice,M,215,,,,SBD,Single-ply,DQ
A. Taylor,90,Novice,M,,,,,SBD,Single-ply,DQ
R. Woodall,100,Novice,M,227.5,157.5,257.5,642.5,SBD,Single-ply,1
R. Harris,100,Novice,M,237.5,160,245,642.5,SBD,Single-ply,2
T. Holland,100,Novice,M,230,157.5,230,617.5,SBD,Single-ply,3
W. Trail,100,Novice,M,230,165,220,615,SBD,Single-ply,4
A. Wilbanks,100,Novice,M,220,145,240,605,SBD,Single-ply,5
D. Barfield,100,Novice,M,217.5,155,227.5,600,SBD,Single-ply,6
T. Smith,100,Novice,M,205,142.5,237.5,585,SBD,Single-ply,7
R. Hancock,100,Novice,M,210,110,250,570,SBD,Single-ply,8
D. Dilleaher,100,Novice,M,180,137.5,200,517.5,SBD,Single-ply,9
B. Thacker,100,Novice,M,165,125,227.5,517.5,SBD,Single-ply,10
S. Gregory,100,Novice,M,182.5,130,,,SBD,Single-ply,DQ
Eric Redding,100,Novice,M,,,,,SBD,Single-ply,DQ
D. Brunot,110,Novice,M,250,200,245,695,SBD,Single-ply,1
A. DuPree,110,Novice,M,240,192.5,240,672.5,SBD,Single-ply,2
C. Davis,110,Novice,M,215,162.5,242.5,620,SBD,Single-ply,3
M. Stillinger,110,Novice,M,205,150,242.5,597.5,SBD,Single-ply,4
M. Hood,110,Novice,M,205,130,215,550,SBD,Single-ply,5
D. Jackson,110,Novice,M,192.5,,,,SBD,Single-ply,DQ
D. Fusci,125,Novice,M,257.5,187.5,275,720,SBD,Single-ply,1
M. Ward,125,Novice,M,237.5,182.5,252.5,672.5,SBD,Single-ply,2
Rodney Yon,125,Novice,M,192.5,135,295,622.5,SBD,Single-ply,3
J. Locke,125,Novice,M,190,160,210,560,SBD,Single-ply,4
A. Hale,125,Novice,M,182.5,112.5,192.5,487.5,SBD,Single-ply,5
R. McCullough,125,Novice,M,170,100,192.5,462.5,SBD,Single-ply,6
W. Sterking,125,Novice,M,150,92.5,195,437.5,SBD,Single-ply,7
B. Arrants,125,Novice,M,,,,,SBD,Single-ply,DQ
L. Bullard,125+,Novice,M,272.5,160,240,672.5,SBD,Single-ply,1
S. Brown,125+,Novice,M,227.5,160,250,637.5,SBD,Single-ply,2
