Division,WeightClassKg,Place,Name,Team,BodyweightKg,Best3SquatKg,Best3BenchKg,Best3DeadliftKg,TotalKg,Equipment,Event,Sex
Boys,51.71,1,Cassius Fitzpatrick,Denison,50.8,149.69,90.72,154.22,394.63,Single-ply,SBD,M
Boys,51.71,2,Gerald Van Ess,McKinney North,49.53,113.4,54.43,120.2,288.03,Single-ply,SBD,M
Boys,51.71,3,Gio Gutierrez,North Mesquite,51.53,104.33,45.36,106.59,256.28,Single-ply,SBD,M
Boys,51.71,4,Jesse Couch,Denison,51.44,90.72,52.16,104.33,247.21,Single-ply,SBD,M
Boys,51.71,5,Brian Heyns,McKinney North,48.26,74.84,49.9,102.06,226.8,Single-ply,SBD,M
Boys,55.79,1,Demitri Sommer,Lewisville The Colony,54.52,174.63,77.11,181.44,433.18,Single-ply,SBD,M
Boys,55.79,2,Brandon Thomas,McKinney North,54.07,142.88,74.84,174.63,392.36,Single-ply,SBD,M
Boys,55.79,3,Crinstin Aleman,North Mesquite,55.7,115.67,74.84,115.67,306.17,Single-ply,SBD,M
Boys,55.79,4,Kolby Dodson,Frisco Centennial,53.98,102.06,61.23,95.25,258.55,Single-ply,SBD,M
Boys,59.87,1,Carlos Bravo,Lewisville The Colony,59.42,190.51,106.59,195.04,492.15,Single-ply,SBD,M
Boys,59.87,2,Adam Piper,Whitesboro,59.87,151.95,92.99,142.88,387.82,Single-ply,SBD,M
Boys,59.87,3,Jacob Wontroba,Denison,58.97,117.93,72.57,122.47,312.98,Single-ply,SBD,M
Boys,59.87,4,Jeffrie Budde,Richardson Pearce,59.69,90.72,68.04,124.74,283.5,Single-ply,SBD,M
Boys,59.87,5,Carson Keller,McKinney North,56.43,97.52,56.7,117.93,272.16,Single-ply,SBD,M
Boys,59.87,6,Jorge Quattromani,Frisco Centennial,57.79,83.91,54.43,95.25,233.6,Single-ply,SBD,M
Boys,67.13,1,Pat White,Lewisville The Colony,65.77,190.51,95.25,217.72,503.49,Single-ply,SBD,M
Boys,67.13,2,Stefan Sommer,Lewisville The Colony,66.54,190.51,104.33,208.65,503.49,Single-ply,SBD,M
Boys,67.13,3,Nick Baril,Frisco Centennial,66.22,170.1,108.86,158.76,437.72,Single-ply,SBD,M
Boys,67.13,4,Matt Castillo,North Mesquite,63.87,145.15,86.18,181.44,412.77,Single-ply,SBD,M
Boys,67.13,5,Stephon Brooks,Lewisville The Colony,63.14,138.35,83.91,183.7,405.97,Single-ply,SBD,M
Boys,67.13,6,Re Knight,Frisco Centennial,63.96,170.1,97.52,138.35,405.97,Single-ply,SBD,M
Boys,67.13,7,Jerimah Thavong,Little Elm,62.41,133.81,88.45,145.15,367.41,Single-ply,SBD,M
Boys,67.13,8,Derek McMullin,Little Elm,67.04,131.54,88.45,142.88,362.87,Single-ply,SBD,M
Boys,67.13,9,Austin Fugina,Frisco Centennial,63.68,136.08,77.11,142.88,356.07,Single-ply,SBD,M
Boys,67.13,10,Ethan Miller,Frisco Centennial,66.68,104.33,58.97,138.35,301.64,Single-ply,SBD,M
Boys,67.13,11,Jared Bowker,Frisco Centennial,65.86,104.33,74.84,106.59,285.76,Single-ply,SBD,M
Boys,67.13,12,Jack Gann,Richardson Pearce,65.32,102.06,65.77,111.13,278.96,Single-ply,SBD,M
Boys,67.13,DQ,Clayton Stringer,Whitesboro,67.04,138.35,,,,Single-ply,SBD,M
Boys,74.84,1,Ivan Sauerzopf,Frisco Lone Star,71.76,192.78,124.74,199.58,517.1,Single-ply,SBD,M
Boys,74.84,2,Mason Pierce,Frisco Centennial,71.85,197.31,120.2,195.04,512.56,Single-ply,SBD,M
Boys,74.84,3,Royce Richichi,Lewisville The Colony,74.03,204.12,111.13,192.78,508.02,Single-ply,SBD,M
Boys,74.84,4,Kionte Sheffield,Garland Sachse,72.39,183.7,120.2,192.78,496.68,Single-ply,SBD,M
Boys,74.84,5,Dra'Lyne Ricks,North Mesquite,74.84,165.56,97.52,199.58,462.66,Single-ply,SBD,M
Boys,74.84,6,Brice Chaney,Whitesboro,73.03,170.1,97.52,192.78,460.4,Single-ply,SBD,M
Boys,74.84,7,Christian Varela,North Mesquite,71.3,151.95,97.52,190.51,439.98,Single-ply,SBD,M
Boys,74.84,8,Trevor Wilson,Frisco Centennial,74.48,158.76,102.06,170.1,430.91,Single-ply,SBD,M
Boys,74.84,9,Shavenghte Hunter,Garland Sachse,74.75,138.35,115.67,158.76,412.77,Single-ply,SBD,M
Boys,74.84,10,Clayton Lambert,McKinney North,74.03,145.15,97.52,163.29,405.97,Single-ply,SBD,M
Boys,74.84,11,Matt Carillo,Frisco Centennial,68.22,158.76,90.72,154.22,403.7,Single-ply,SBD,M
Boys,74.84,12,Dominic Reyes,Richardson Pearce,68.13,136.08,92.99,136.08,365.14,Single-ply,SBD,M
Boys,74.84,13,Chris Charles,Garland Sachse,68.49,127.01,79.38,129.27,335.66,Single-ply,SBD,M
Boys,74.84,14,Brandon Anderson,Frisco Centennial,69.13,120.2,58.97,129.27,308.44,Single-ply,SBD,M
Boys,74.84,DQ,Jeff Hodgekiss,Frisco Centennial,70.31,120.2,,,,Single-ply,SBD,M
Boys,74.84,DQ,John Rogers,Dallas Jesuit,73.12,120.2,,,,Single-ply,SBD,M
Boys,74.84,DQ,Jamie Miller,Little Elm,71.03,113.4,,,,Single-ply,SBD,M
Boys,74.84,DQ,Bryant Wallace,Richardson Pearce,74.84,,,,,Single-ply,SBD,M
Boys,82.1,1,Austin Arnold,Denison,81.56,213.19,170.1,229.06,612.35,Single-ply,SBD,M
Boys,82.1,2,Lakelon Rice,Frisco Centennial,79.2,213.19,127.01,181.44,521.63,Single-ply,SBD,M
Boys,82.1,3,Frank Perdomo,Lewisville The Colony,81.56,185.97,97.52,217.72,501.22,Single-ply,SBD,M
Boys,82.1,4,Justin Jones,McKinney North,79.11,197.31,111.13,190.51,498.95,Single-ply,SBD,M
Boys,82.1,5,Colton Hensley,Denison,79.2,167.83,104.33,197.31,469.47,Single-ply,SBD,M
Boys,82.1,6,Jason Cho,Richardson Pearce,81.65,158.76,113.4,181.44,453.59,Single-ply,SBD,M
Boys,82.1,7,Jadin Lewis,Frisco Centennial,80.56,179.17,102.06,165.56,446.79,Single-ply,SBD,M
Boys,82.1,8,Anthony Tanksley,North Mesquite,79.02,161.03,92.99,183.7,437.72,Single-ply,SBD,M
Boys,82.1,9,Keith Ngondo,Little Elm,81.01,183.7,74.84,172.37,430.91,Single-ply,SBD,M
Boys,82.1,10,Luis Orozco,McKinney North,75.3,158.76,88.45,181.44,428.64,Single-ply,SBD,M
Boys,82.1,11,Blair Swanner,Frisco Centennial,78.29,161.03,99.79,163.29,424.11,Single-ply,SBD,M
Boys,82.1,12,Xavier Battles,Richardson Pearce,79.29,127.01,83.91,165.56,376.48,Single-ply,SBD,M
Boys,82.1,13,David Koenig,Frisco Lone Star,78.2,120.2,83.91,147.42,351.53,Single-ply,SBD,M
Boys,82.1,14,Caleb Kunasek,Dallas Jesuit,76.84,124.74,79.38,133.81,337.93,Single-ply,SBD,M
Boys,82.1,15,Luke Nolan,Dallas Jesuit,81.19,115.67,74.84,142.88,333.39,Single-ply,SBD,M
Boys,82.1,DQ,Andrew Pierce,Frisco Centennial,79.83,161.03,,,,Single-ply,SBD,M
Boys,89.81,1,Mike Denton,Lewisville The Colony,87.41,240.4,102.06,233.6,576.06,Single-ply,SBD,M
Boys,89.81,2,Thomas Morales,Whitesboro,86.55,136.08,95.25,142.88,374.21,Single-ply,SBD,M
Boys,89.81,3,Collin Kilcrease,Whitesboro,83.91,120.2,99.79,151.95,371.95,Single-ply,SBD,M
Boys,89.81,4,Jordan Jones,Richardson Pearce,82.64,111.13,77.11,113.4,301.64,Single-ply,SBD,M
Boys,89.81,5,Jacob Livingston,Frisco Centennial,87.82,108.86,72.57,111.13,292.57,Single-ply,SBD,M
Boys,89.81,DQ,Corbin Diaz,Frisco Lone Star,84.28,199.58,,,,Single-ply,SBD,M
Boys,99.79,1,Isaiah Hinton,Lewisville The Colony,98.88,267.62,147.42,249.48,664.51,Single-ply,SBD,M
Boys,99.79,2,Axel DeLeon,Little Elm,99.34,251.74,142.88,247.21,641.83,Single-ply,SBD,M
Boys,99.79,3,Acuda Esin,Dallas Jesuit,99.16,233.6,147.42,242.67,623.69,Single-ply,SBD,M
Boys,99.79,4,Clay Eppler,Denison,94.89,204.12,133.81,226.8,564.72,Single-ply,SBD,M
Boys,99.79,5,Josh Heath,Denison,97.61,201.85,115.67,204.12,521.63,Single-ply,SBD,M
Boys,99.79,6,Jalen Scott,North Mesquite,99.16,199.58,122.47,199.58,521.63,Single-ply,SBD,M
Boys,99.79,7,Emmit Morgan,Frisco Centennial,96.98,190.51,131.54,181.44,503.49,Single-ply,SBD,M
Boys,99.79,8,Logan Teel,McKinney North,93.26,192.78,102.06,206.38,501.22,Single-ply,SBD,M
Boys,99.79,9,Sean Yoo,McKinney North,91.63,183.7,102.06,165.56,451.32,Single-ply,SBD,M
Boys,99.79,10,Dylan Harraleson,Garland Sachse,90.08,158.76,138.35,136.08,433.18,Single-ply,SBD,M
Boys,99.79,11,Cody Wicker,Dallas Jesuit,95.35,133.81,83.91,147.42,365.14,Single-ply,SBD,M
Boys,99.79,12,Evan English,Dallas Jesuit,92.26,111.13,88.45,120.2,319.78,Single-ply,SBD,M
Boys,109.77,1,Jayden Stumbaugh,Denison,109.13,226.8,149.69,235.87,612.35,Single-ply,SBD,M
Boys,109.77,2,Zack McCoy,Little Elm,106.5,247.21,158.76,204.12,610.08,Single-ply,SBD,M
Boys,109.77,3,Austin Apari,Lewisville The Colony,108.86,244.94,90.72,226.8,562.45,Single-ply,SBD,M
Boys,109.77,4,Chris O'Toole,Little Elm,102.69,199.58,131.54,192.78,523.9,Single-ply,SBD,M
Boys,109.77,5,Uche Ugwanze,McKinney North,109.32,217.72,97.52,201.85,517.1,Single-ply,SBD,M
Boys,109.77,6,Austin Horton,McKinney North,105.23,195.04,102.06,195.04,492.15,Single-ply,SBD,M
Boys,109.77,7,Jack Ray,Frisco Lone Star,108.77,190.51,92.99,188.24,471.74,Single-ply,SBD,M
Boys,109.77,8,Tyler McDonald,Frisco Centennial,101.97,156.49,102.06,142.88,401.43,Single-ply,SBD,M
Boys,109.77,9,Casey Misenheimer,Whitesboro,107.23,120.2,92.99,145.15,358.34,Single-ply,SBD,M
Boys,109.77,10,Patrick Finnegan,Dallas Jesuit,108.14,102.06,79.38,120.2,301.64,Single-ply,SBD,M
Boys,124.74,1,Donovan Parker,North Mesquite,111.86,242.67,149.69,231.33,623.69,Single-ply,SBD,M
Boys,124.74,2,Jaymes Stumbaugh,Denison,118.48,238.14,156.49,215.46,610.08,Single-ply,SBD,M
Boys,124.74,3,Justin Bigelow,Denison,116.3,229.06,129.27,208.65,566.99,Single-ply,SBD,M
Boys,124.74,4,Trey Marks,Little Elm,123.83,226.8,133.81,206.38,566.99,Single-ply,SBD,M
Boys,124.74,5,Mike Nichols #2,North Mesquite,123.56,213.19,136.08,210.92,560.19,Single-ply,SBD,M
Boys,124.74,6,Adam Stapleton,Whitesboro,116.03,215.46,147.42,185.97,548.85,Single-ply,SBD,M
Boys,124.74,7,Aj Roland,Garland Sachse,123.56,158.76,117.93,167.83,444.52,Single-ply,SBD,M
Boys,124.74,8,Caleb Mitcheson,Whitesboro,114.03,156.49,104.33,163.29,424.11,Single-ply,SBD,M
Boys,124.74,DQ,Nick Natour,Frisco Lone Star,114.21,,,,,Single-ply,SBD,M
Boys,124.74,DQ,Sir Wells,Lewisville The Colony,119.66,192.78,,,,Single-ply,SBD,M
Boys,124.74+,1,Abran Oakes,Garland Sachse,128.28,260.82,149.69,226.8,637.3,Single-ply,SBD,M
Boys,124.74+,2,Bryan Townsend,Whitesboro,126.1,226.8,142.88,190.51,560.19,Single-ply,SBD,M
Boys,124.74+,3,Josh Peterson,North Mesquite,136.53,235.87,117.93,190.51,544.31,Single-ply,SBD,M
Boys,124.74+,4,Damarcus Henderson,Lewisville The Colony,132.9,215.46,120.2,204.12,539.77,Single-ply,SBD,M
Boys,124.74+,5,Blake Cunningham,Denison,136.08,183.7,111.13,183.7,478.54,Single-ply,SBD,M
Boys,124.74+,6,Dezmand Candelarie,North Mesquite,128.46,181.44,113.4,181.44,476.27,Single-ply,SBD,M
Boys,124.74+,7,Jace Dickson,Whitesboro,129.36,142.88,83.91,117.93,344.73,Single-ply,SBD,M
