Division,WeightClassKg,Place,Name,Team,BodyweightKg,Best3SquatKg,Best3BenchKg,Best3DeadliftKg,TotalKg,Equipment,Event,Sex
Boys,51.71,1,Finlee Rudicile,Farmersville,50.26,86.18,61.23,106.59,254.01,Single-ply,SBD,M
Boys,51.71,2,Reid Morris,Frisco Wakeland,50.26,90.72,52.16,106.59,249.48,Single-ply,SBD,M
Boys,51.71,3,Brandon Horst,Sanger,44.45,88.45,49.9,104.33,242.67,Single-ply,SBD,M
Boys,51.71,4,Jameson Donahue,Carrollton Turner,50.98,90.72,45.36,92.99,229.06,Single-ply,SBD,M
Boys,51.71,5,Lance Jones,Van Alstyne,51.07,77.11,43.09,102.06,222.26,Single-ply,SBD,M
Boys,51.71,6,Charlie Newman,Aubrey,46.99,74.84,40.82,79.38,195.04,Single-ply,SBD,M
Boys,51.71,7,Noah Eikenhorst,Carrollton Creekview,43.09,58.97,43.09,65.77,167.83,Single-ply,SBD,M
Boys,51.71,8,John Byork,Gainesville,48.72,45.36,36.29,68.04,149.69,Single-ply,SBD,M
Boys,51.71,DQ,Gavin Ruiz,Gainesville,51.26,102.06,,,,Single-ply,SBD,M
Boys,55.79,1,Nate Lunsford,Frisco Wakeland,53.61,165.56,90.72,161.03,417.3,Single-ply,SBD,M
Boys,55.79,2,Gavin Carroll,Frisco Wakeland,55.61,136.08,81.65,151.95,369.68,Single-ply,SBD,M
Boys,55.79,3,Alex Rushing,Whitewright,54.52,133.81,95.25,136.08,365.14,Single-ply,SBD,M
Boys,55.79,4,Zeke Castillo,Frisco Wakeland,54.88,120.2,72.57,140.61,333.39,Single-ply,SBD,M
Boys,55.79,5,Dalton Parfait,Bonham,55.61,120.2,77.11,129.27,326.59,Single-ply,SBD,M
Boys,55.79,6,Hayden Stevenson,Bonham,55.25,106.59,63.5,147.42,317.51,Single-ply,SBD,M
Boys,55.79,7,Zach Brigandi,Little Elm,54.43,115.67,72.57,127.01,315.25,Single-ply,SBD,M
Boys,55.79,8,Luke Sciba,Aubrey,53.34,99.79,70.31,127.01,297.1,Single-ply,SBD,M
Boys,55.79,9,Vince Brigandi,Little Elm,54.98,102.06,65.77,127.01,294.84,Single-ply,SBD,M
Boys,55.79,10,Adam Mendoza,Pilot Point,52.25,90.72,61.23,113.4,265.35,Single-ply,SBD,M
Boys,55.79,11,Evan Miller #3,Carrollton Creekview,55.07,90.72,61.23,108.86,260.82,Single-ply,SBD,M
Boys,55.79,12,Camron Gray,Carrollton Creekview,55.52,88.45,56.7,108.86,254.01,Single-ply,SBD,M
Boys,55.79,DQ,Philben McDonald,Terrell,54.43,,,,,Single-ply,SBD,M
Boys,59.87,1,Jeremiah Devereaux,Pilot Point,59.51,149.69,92.99,163.29,405.97,Single-ply,SBD,M
Boys,59.87,2,Jacob Grubisa,Farmersville,58.69,149.69,65.77,174.63,390.09,Single-ply,SBD,M
Boys,59.87,3,Dalton Waller,Princeton,58.88,140.61,81.65,156.49,378.75,Single-ply,SBD,M
Boys,59.87,4,Adrian Tostado,Sanger,58.24,127.01,79.38,113.4,319.78,Single-ply,SBD,M
Boys,59.87,5,Luis Franco,Princeton,59.87,113.4,68.04,136.08,317.51,Single-ply,SBD,M
Boys,59.87,6,Kyle Humphrey,Sherman,57.15,120.2,74.84,117.93,312.98,Single-ply,SBD,M
Boys,59.87,7,Marc Vasquez,Aubrey,58.24,102.06,52.16,124.74,278.96,Single-ply,SBD,M
Boys,59.87,8,Jaxson Rudicile,Farmersville,57.88,90.72,72.57,113.4,276.69,Single-ply,SBD,M
Boys,59.87,9,Devin Brunson,Melissa,58.6,92.99,68.04,108.86,269.89,Single-ply,SBD,M
Boys,59.87,10,Darryn Brossett,Carrollton Ranchview,59.87,97.52,61.23,104.33,263.08,Single-ply,SBD,M
Boys,59.87,11,Dawson Cassidy,Gainesville,59.87,77.11,52.16,108.86,238.14,Single-ply,SBD,M
Boys,59.87,DQ,Stephen Garcia,Carrollton Creekview,56.88,88.45,,,,Single-ply,SBD,M
Boys,67.13,1,Grant Carter,Sanger,66.22,183.7,120.2,183.7,487.61,Single-ply,SBD,M
Boys,67.13,2,Armani Johnson,Little Elm,66.04,179.17,92.99,176.9,449.06,Single-ply,SBD,M
Boys,67.13,3,Cole Owens,Bonham,64.68,174.63,90.72,181.44,446.79,Single-ply,SBD,M
Boys,67.13,4,Leo Sustaita,Gainesville,67.13,161.03,95.25,181.44,437.72,Single-ply,SBD,M
Boys,67.13,5,Joseph Merrell,Little Elm,66.04,158.76,92.99,165.56,417.3,Single-ply,SBD,M
Boys,67.13,6,David Colmenero,Pilot Point,65.32,154.22,79.38,181.44,415.04,Single-ply,SBD,M
Boys,67.13,7,Raymond Bhikhai,Pilot Point,67.13,154.22,77.11,181.44,412.77,Single-ply,SBD,M
Boys,67.13,8,Zack Wright,Van Alstyne,63.87,163.29,95.25,138.35,396.89,Single-ply,SBD,M
Boys,67.13,9,Raul Rico,Gunter,66.41,142.88,102.06,149.69,394.63,Single-ply,SBD,M
Boys,67.13,10,Caleb Scott,Aubrey,63.59,147.42,88.45,149.69,385.55,Single-ply,SBD,M
Boys,67.13,11,Elishah Harrison,Princeton,65.82,149.69,77.11,158.76,385.55,Single-ply,SBD,M
Boys,67.13,12,Ke'Un Mays,Terrell,65.86,136.08,90.72,158.76,385.55,Single-ply,SBD,M
Boys,67.13,13,Nick Cryer,Frisco Wakeland,67.04,142.88,83.91,149.69,376.48,Single-ply,SBD,M
Boys,67.13,14,Ryan Holman,Aubrey,63.68,127.01,77.11,136.08,340.19,Single-ply,SBD,M
Boys,67.13,15,Alex Castaneda,Garland Naaman Forest,65.41,113.4,74.84,127.01,315.25,Single-ply,SBD,M
Boys,67.13,15,Alex Castaneda,Garland Naaman Forest,65.41,113.4,74.84,127.01,315.25,Single-ply,SBD,M
Boys,67.13,16,Mason Snow,Gunter,64.68,122.47,68.04,120.2,310.71,Single-ply,SBD,M
Boys,67.13,17,Regan McElreath,Gainesville,60.87,104.33,65.77,122.47,292.57,Single-ply,SBD,M
Boys,67.13,18,Sam Mosby,Van Alstyne,63.05,95.25,56.7,122.47,274.42,Single-ply,SBD,M
Boys,67.13,19,Eli Mosby,Van Alstyne,60.06,95.25,56.7,113.4,265.35,Single-ply,SBD,M
Boys,67.13,20,Alexander Gonzales,Carrollton Turner,62.6,83.91,61.23,90.72,235.87,Single-ply,SBD,M
Boys,67.13,21,Genesis Marban,Carrollton Turner,65.59,49.9,45.36,74.84,170.1,Single-ply,SBD,M
Boys,67.13,DQ,Hunter McCoy,Farmersville,66.95,,,,,Single-ply,SBD,M
Boys,67.13,DQ,Spencer Neumann,Aubrey,66.5,124.74,,,,Single-ply,SBD,M
Boys,67.13,DQ,Ethan McClung,Melissa,66.59,136.08,,,,Single-ply,SBD,M
Boys,74.84,1,George Kennard,Frisco Wakeland,73.57,208.65,136.08,219.99,564.72,Single-ply,SBD,M
Boys,74.84,2,Taylor Barrett,Pilot Point,72.48,199.58,117.93,199.58,517.1,Single-ply,SBD,M
Boys,74.84,3,Evan Wilson,Bonham,74.84,185.97,99.79,226.8,512.56,Single-ply,SBD,M
Boys,74.84,4,Eric Shaw,Lone Oak,73.39,183.7,124.74,174.63,483.08,Single-ply,SBD,M
Boys,74.84,5,Michael Walker #4,Little Elm,74.21,179.17,104.33,192.78,476.27,Single-ply,SBD,M
Boys,74.84,6,Dusty Burris,Princeton,72.08,156.49,127.01,183.7,467.2,Single-ply,SBD,M
Boys,74.84,7,Austin Ballard,Bonham,71.94,170.1,99.79,192.78,462.66,Single-ply,SBD,M
Boys,74.84,8,Shingi Maraire,Aubrey,73.66,183.7,83.91,185.97,453.59,Single-ply,SBD,M
Boys,74.84,9,Michael Wallace,Sherman,69.85,174.63,83.91,158.76,417.3,Single-ply,SBD,M
Boys,74.84,10,Brett Carter,Sanger,74.39,158.76,95.25,149.69,403.7,Single-ply,SBD,M
Boys,74.84,11,DeVante Clayton,Sherman,67.95,161.03,83.91,156.49,401.43,Single-ply,SBD,M
Boys,74.84,12,Jose Garcia,Terrell,68.31,142.88,104.33,154.22,401.43,Single-ply,SBD,M
Boys,74.84,13,Jesus Duran,Farmersville,74.75,154.22,81.65,158.76,394.63,Single-ply,SBD,M
Boys,74.84,14,Gavin Brown,Sanger,71.35,147.42,86.18,156.49,390.09,Single-ply,SBD,M
Boys,74.84,15,Nicholas Negron,Garland Naaman Forest,72.94,136.08,86.18,158.76,381.02,Single-ply,SBD,M
Boys,74.84,15,Nicholas Negron,Garland Naaman Forest,72.94,136.08,86.18,158.76,381.02,Single-ply,SBD,M
Boys,74.84,16,Shawn Martin,Bonham,73.12,133.81,81.65,163.29,378.75,Single-ply,SBD,M
Boys,74.84,17,Troy McKnight,Carrollton Ranchview,68.49,136.08,74.84,151.95,362.87,Single-ply,SBD,M
Boys,74.84,18,Syler Saenz,Sanger,72.94,133.81,83.91,142.88,360.61,Single-ply,SBD,M
Boys,74.84,19,Brandon Perdue #2,Gunter,74.39,142.88,97.52,120.2,360.61,Single-ply,SBD,M
Boys,74.84,20,Hudson Wallace,Lucas Lovejoy,68.22,124.74,88.45,142.88,356.07,Single-ply,SBD,M
Boys,74.84,21,Marco Morales,Melissa,74.75,106.59,77.11,136.08,319.78,Single-ply,SBD,M
Boys,74.84,22,Seth Massheder,Terrell,74.84,102.06,77.11,138.35,317.51,Single-ply,SBD,M
Boys,74.84,23,Collin O'Neal,Melissa,72.21,113.4,63.5,136.08,312.98,Single-ply,SBD,M
Boys,74.84,24,Nathan Ihle,Terrell,67.68,79.38,45.36,99.79,224.53,Single-ply,SBD,M
Boys,74.84,25,Colby Cruz,Carrollton Creekview,71.85,70.31,65.77,83.91,219.99,Single-ply,SBD,M
Boys,74.84,DQ,Dalton Young,Lone Oak,71.12,,,,,Single-ply,SBD,M
Boys,74.84,DQ,Cameron Credle,Garland Naaman Forest,68.31,,,,,Single-ply,SBD,M
Boys,74.84,DQ,Carl Melito,Garland Naaman Forest,73.94,,,,,Single-ply,SBD,M
Boys,74.84,DQ,Cameron Credle,Garland Naaman Forest,68.31,,,,,Single-ply,SBD,M
Boys,74.84,DQ,Carl Melito,Garland Naaman Forest,73.94,,,,,Single-ply,SBD,M
Boys,82.1,1,Alex Loi,Garland Naaman Forest,78.74,219.99,111.13,185.97,517.1,Single-ply,SBD,M
Boys,82.1,1,Alex Loi,Garland Naaman Forest,78.74,219.99,111.13,185.97,517.1,Single-ply,SBD,M
Boys,82.1,2,Darrion Green,Pilot Point,80.56,174.63,129.27,213.19,517.1,Single-ply,SBD,M
Boys,82.1,3,Colt Gallaway,Pilot Point,78.11,183.7,120.2,204.12,508.02,Single-ply,SBD,M
Boys,82.1,4,Adam Leiker,Lucas Lovejoy,79.29,172.37,106.59,210.92,489.88,Single-ply,SBD,M
Boys,82.1,5,Reece Miller,Bonham,81.92,192.78,102.06,185.97,480.81,Single-ply,SBD,M
Boys,82.1,6,Brandon Gonzalez,Princeton,81.19,181.44,115.67,181.44,478.54,Single-ply,SBD,M
Boys,82.1,7,Antonio Puga,Pilot Point,81.37,176.9,113.4,183.7,474,Single-ply,SBD,M
Boys,82.1,8,Roy Goins,Little Elm,78.02,176.9,104.33,179.17,460.4,Single-ply,SBD,M
Boys,82.1,9,Landon McDermott,Lucas Lovejoy,75.75,161.03,108.86,185.97,455.86,Single-ply,SBD,M
Boys,82.1,10,Gavin Clark,Whitewright,75.75,163.29,117.93,172.37,453.59,Single-ply,SBD,M
Boys,82.1,11,Luke Parker,Lucas Lovejoy,77.02,158.76,104.33,190.51,453.59,Single-ply,SBD,M
Boys,82.1,12,Danny Boyles,Princeton,79.83,167.83,90.72,172.37,430.91,Single-ply,SBD,M
Boys,82.1,13,Gavin Ritchie,Van Alstyne,80.38,161.03,79.38,167.83,408.23,Single-ply,SBD,M
Boys,82.1,14,Angel Torres #3,Little Elm,78.65,142.88,92.99,151.95,387.82,Single-ply,SBD,M
Boys,82.1,15,Brayson Romine,Carrollton Ranchview,76.29,145.15,79.38,158.76,383.29,Single-ply,SBD,M
Boys,82.1,16,Jacob Poplin,Farmersville,79.38,136.08,88.45,158.76,383.29,Single-ply,SBD,M
Boys,82.1,17,John Hill,Whitewright,78.38,138.35,90.72,149.69,378.75,Single-ply,SBD,M
Boys,82.1,18,Mason Holzer,Sanger,76.75,147.42,74.84,142.88,365.14,Single-ply,SBD,M
Boys,82.1,19,LJ Rios,Sanger,78.83,142.88,92.99,127.01,362.87,Single-ply,SBD,M
Boys,82.1,20,Will Roane,Gunter,82.01,136.08,90.72,136.08,362.87,Single-ply,SBD,M
Boys,82.1,21,Bryson Britten,Aubrey,77.75,129.27,88.45,142.88,360.61,Single-ply,SBD,M
Boys,82.1,22,Kris Blevins,Melissa,77.47,138.35,70.31,149.69,358.34,Single-ply,SBD,M
Boys,82.1,23,Seth Gammage,Lone Oak,77.56,129.27,74.84,136.08,340.19,Single-ply,SBD,M
Boys,82.1,24,Owen Orozco,Carrollton Creekview,76.93,117.93,83.91,129.27,331.12,Single-ply,SBD,M
Boys,82.1,25,Cody Dunn,Whitewright,81.37,108.86,72.57,136.08,317.51,Single-ply,SBD,M
Boys,82.1,26,Zach Douglas,Carrollton Ranchview,77.2,113.4,79.38,115.67,308.44,Single-ply,SBD,M
Boys,82.1,27,Angel Ramirez,Carrollton Turner,81.56,90.72,,,90.72,Single-ply,S,M
Boys,89.81,1,Athens Gochis,Pilot Point,88.18,226.8,122.47,217.72,566.99,Single-ply,SBD,M
Boys,89.81,2,Jordan Simpson,Carrollton Creekview,86.45,206.38,131.54,226.8,564.72,Single-ply,SBD,M
Boys,89.81,3,John Cooper,Whitewright,88.9,179.17,102.06,226.8,508.02,Single-ply,SBD,M
Boys,89.81,4,Max Dooley,Lucas Lovejoy,88.99,183.7,108.86,174.63,467.2,Single-ply,SBD,M
Boys,89.81,5,Derek Stevenson,Aubrey,89.45,151.95,99.79,190.51,442.25,Single-ply,SBD,M
Boys,89.81,6,Jonathan Uland,Bonham,85.09,156.49,99.79,183.7,439.98,Single-ply,SBD,M
Boys,89.81,7,DeAndre Hawkins,Carrollton Ranchview,84.19,163.29,97.52,172.37,433.18,Single-ply,SBD,M
Boys,89.81,8,Caleb Smith,Terrell,84.82,147.42,95.25,181.44,424.11,Single-ply,SBD,M
Boys,89.81,9,Rodney Wells Jr,Terrell,86.73,156.49,104.33,156.49,417.3,Single-ply,SBD,M
Boys,89.81,10,Tyson James-Owen,Melissa,87.82,156.49,86.18,151.95,394.63,Single-ply,SBD,M
Boys,89.81,11,Nicholas Posey,Garland Naaman Forest,86.36,156.49,90.72,142.88,390.09,Single-ply,SBD,M
Boys,89.81,11,Nicholas Posey,Garland Naaman Forest,86.36,156.49,90.72,142.88,390.09,Single-ply,SBD,M
Boys,89.81,12,Ben Boswell,Sherman,89.36,147.42,88.45,147.42,383.29,Single-ply,SBD,M
Boys,89.81,13,Alejandro Montenegro,Terrell,82.55,113.4,70.31,129.27,312.98,Single-ply,SBD,M
Boys,89.81,14,Issa Diop,Carrollton Creekview,87.63,106.59,61.23,102.06,269.89,Single-ply,SBD,M
Boys,89.81,DQ,Brock Hancock,Lucas Lovejoy,84.55,149.69,,,,Single-ply,SBD,M
Boys,89.81,DQ,Stephen Singh,Lone Oak,85.18,181.44,90.72,90.72,,Single-ply,SBD,M
Boys,99.79,1,Charles Ijioma,Little Elm,98.88,249.48,131.54,249.48,630.49,Single-ply,SBD,M
Boys,99.79,2,Kevin Williams,Aubrey,94.71,215.46,136.08,226.8,578.33,Single-ply,SBD,M
Boys,99.79,3,Ezequiel Trejo,Pilot Point,90.63,215.46,111.13,215.46,542.04,Single-ply,SBD,M
Boys,99.79,4,Diego Puga,Pilot Point,91.35,210.92,113.4,215.46,539.77,Single-ply,SBD,M
Boys,99.79,5,Kade Ashley,Lucas Lovejoy,94.89,197.31,140.61,181.44,519.36,Single-ply,SBD,M
Boys,99.79,6,Junior Hernandez,Princeton,94.39,213.19,120.2,176.9,510.29,Single-ply,SBD,M
Boys,99.79,7,Justus Seiber,Lone Oak,93.98,192.78,120.2,181.44,494.42,Single-ply,SBD,M
Boys,99.79,8,Cade Meyerdirk,Gunter,98.34,190.51,136.08,149.69,476.27,Single-ply,SBD,M
Boys,99.79,9,Tyler Scott,Pilot Point,97.07,210.92,102.06,156.49,469.47,Single-ply,SBD,M
Boys,99.79,10,Earl Winkle,Gunter,96.07,170.1,104.33,167.83,442.25,Single-ply,SBD,M
Boys,99.79,11,Jason Purifoy,Little Elm,94.35,161.03,115.67,161.03,437.72,Single-ply,SBD,M
Boys,99.79,12,Zane Perkins,Aubrey,92.08,151.95,92.99,163.29,408.23,Single-ply,SBD,M
Boys,99.79,13,Larry Gaston,Melissa,97.61,136.08,95.25,149.69,381.02,Single-ply,SBD,M
Boys,99.79,14,Martin Flores,Melissa,91.53,133.81,97.52,138.35,369.68,Single-ply,SBD,M
Boys,99.79,15,Victor Benavides,Carrollton Turner,97.61,156.49,95.25,113.4,365.14,Single-ply,SBD,M
Boys,99.79,16,Jose Hernandez,Carrollton Turner,95.53,133.81,83.91,145.15,362.87,Single-ply,SBD,M
Boys,99.79,17,Eric Nichols,Van Alstyne,92.71,124.74,106.59,115.67,347,Single-ply,SBD,M
Boys,99.79,18,Trevon Williams,Carrollton Ranchview,96.62,122.47,74.84,138.35,335.66,Single-ply,SBD,M
Boys,99.79,DQ,Gage Mullis,Frisco Wakeland,90.45,163.29,,,,Single-ply,SBD,M
Boys,99.79,DQ,Andres Castillo,Carrollton Creekview,97.34,142.88,,,,Single-ply,SBD,M
Boys,99.79,DQ,David Ferrier,Melissa,97.34,147.42,86.18,,,Single-ply,SBD,M
Boys,99.79,DQ,Cole Egger,Lucas Lovejoy,97.07,142.88,,,,Single-ply,SBD,M
Boys,99.79,DQ,Roberto Nava,Gainesville,98.07,,,,,Single-ply,SBD,M
Boys,109.77,1,Dylan Branson,Little Elm,105.23,272.16,147.42,219.99,639.57,Single-ply,SBD,M
Boys,109.77,2,Jonathan Havis,Sanger,104.87,219.99,149.69,206.38,576.06,Single-ply,SBD,M
Boys,109.77,3,Bryton Jimenez,Lone Oak,107.32,238.14,120.2,199.58,557.92,Single-ply,SBD,M
Boys,109.77,4,Lord Zapata,Garland Naaman Forest,107.23,219.99,142.88,192.78,555.65,Single-ply,SBD,M
Boys,109.77,4,Lord Zapata,Garland Naaman Forest,107.23,219.99,142.88,192.78,555.65,Single-ply,SBD,M
Boys,109.77,5,Justin Nichols,Sherman,102.51,217.72,127.01,188.24,532.97,Single-ply,SBD,M
Boys,109.77,6,Asael Lagos,Gainesville,107.05,222.26,106.59,204.12,532.97,Single-ply,SBD,M
Boys,109.77,7,Ty Landrum,Garland Naaman Forest,102.51,204.12,115.67,204.12,523.9,Single-ply,SBD,M
Boys,109.77,7,Ty Landrum,Garland Naaman Forest,102.51,204.12,115.67,204.12,523.9,Single-ply,SBD,M
Boys,109.77,8,Nathan Ellison,Aubrey,108.68,174.63,136.08,210.92,521.63,Single-ply,SBD,M
Boys,109.77,9,Brandon Miller,Bonham,104.87,190.51,115.67,210.92,517.1,Single-ply,SBD,M
Boys,109.77,10,Dreezy Brown,Garland Naaman Forest,103.6,183.7,102.06,204.12,489.88,Single-ply,SBD,M
Boys,109.77,10,Dreezy Brown,Garland Naaman Forest,103.6,183.7,102.06,204.12,489.88,Single-ply,SBD,M
Boys,109.77,11,Noah Schwarz,Frisco Wakeland,108.95,163.29,113.4,170.1,446.79,Single-ply,SBD,M
Boys,109.77,12,Dayo Odeyingbo,Carrollton Ranchview,108.05,154.22,97.52,174.63,426.38,Single-ply,SBD,M
Boys,109.77,13,Maxwell Nazarko,Van Alstyne,100.24,142.88,95.25,145.15,383.29,Single-ply,SBD,M
Boys,109.77,14,Sawyer Callies,Van Alstyne,102.97,142.88,68.04,136.08,347,Single-ply,SBD,M
Boys,109.77,15,Jesus Munoz,Terrell,100.7,117.93,79.38,113.4,310.71,Single-ply,SBD,M
Boys,109.77,16,Dominique Spencer,Carrollton Turner,100.97,92.99,83.91,102.06,278.96,Single-ply,SBD,M
Boys,109.77,DQ,Albino Torres,Gainesville,107.86,,,,,Single-ply,SBD,M
Boys,124.74,1,Carlos Giron,Pilot Point,124.38,235.87,167.83,235.87,639.57,Single-ply,SBD,M
Boys,124.74,2,Ja'Coby Paul,Terrell,115.21,238.14,170.1,222.26,630.49,Single-ply,SBD,M
Boys,124.74,3,Fili Rincon,Lone Oak,119.48,238.14,156.49,226.8,621.42,Single-ply,SBD,M
Boys,124.74,4,Ryan Langley,Sanger,110.59,249.48,147.42,192.78,589.67,Single-ply,SBD,M
Boys,124.74,5,Keylynn Rushing,Princeton,122.65,190.51,142.88,217.72,551.11,Single-ply,SBD,M
Boys,124.74,6,Skylar Finnigan,Little Elm,117.03,213.19,127.01,206.38,546.58,Single-ply,SBD,M
Boys,124.74,7,Daniel Dowling,Bonham,117.84,226.8,136.08,172.37,535.24,Single-ply,SBD,M
Boys,124.74,8,Fred Reyna,Aubrey,116.21,215.46,106.59,192.78,514.83,Single-ply,SBD,M
Boys,124.74,9,Dylan Templeman,Princeton,122.47,181.44,129.27,201.85,512.56,Single-ply,SBD,M
Boys,124.74,10,Tyrese Jackson,Garland Naaman Forest,118.39,181.44,104.33,192.78,478.54,Single-ply,SBD,M
Boys,124.74,10,Tyrese Jackson,Garland Naaman Forest,118.39,181.44,104.33,192.78,478.54,Single-ply,SBD,M
Boys,124.74,11,Lucas Anderson,Lucas Lovejoy,110.95,183.7,106.59,163.29,453.59,Single-ply,SBD,M
Boys,124.74,12,Aaron Bankes,Lucas Lovejoy,111.95,156.49,113.4,183.7,453.59,Single-ply,SBD,M
Boys,124.74,13,Gage McCarty,Sanger,113.67,158.76,120.2,170.1,449.06,Single-ply,SBD,M
Boys,124.74,14,Trevor Duggan,Melissa,110.95,183.7,90.72,165.56,439.98,Single-ply,SBD,M
Boys,124.74,15,Cameron Officer,Carrollton Creekview,113.67,142.88,92.99,188.24,424.11,Single-ply,SBD,M
Boys,124.74,16,Claudio Torres,Carrollton Ranchview,113.31,113.4,74.84,136.08,324.32,Single-ply,SBD,M
Boys,124.74,DQ,Tristan Lafreniere,Carrollton Turner,110.86,124.74,,142.88,,Single-ply,SBD,M
Boys,124.74,DQ,Beau Blanton,Frisco Wakeland,120.93,192.78,136.08,,,Single-ply,SBD,M
Boys,124.74,DQ,Hayden Hayes,Sherman,112.22,174.63,,,,Single-ply,SBD,M
Boys,124.74+,1,Eric Roberts,Terrell,137.08,281.23,170.1,229.06,680.39,Single-ply,SBD,M
Boys,124.74+,2,Sheldon Parkman,Gunter,133.36,294.84,156.49,226.8,678.12,Single-ply,SBD,M
Boys,124.74+,3,Jesse Harris,Gunter,144.15,233.6,147.42,197.31,578.33,Single-ply,SBD,M
Boys,124.74+,4,Francisco Estrada,Pilot Point,136.08,222.26,129.27,222.26,573.79,Single-ply,SBD,M
Boys,124.74+,5,Josh Schnitker,Sherman,125.1,199.58,151.95,204.12,555.65,Single-ply,SBD,M
Boys,124.74+,6,CJ Mendoza,Carrollton Ranchview,140.7,208.65,115.67,231.33,555.65,Single-ply,SBD,M
Boys,124.74+,7,Felix Ramirez,Frisco Wakeland,131.09,226.8,129.27,197.31,553.38,Single-ply,SBD,M
Boys,124.74+,8,Dominic Little,Whitewright,138.98,249.48,106.59,172.37,528.44,Single-ply,SBD,M
Boys,124.74+,9,Nicholas Carbajal,Carrollton Turner,127.55,170.1,136.08,219.99,526.17,Single-ply,SBD,M
Boys,124.74+,10,Max Hahn,Carrollton Ranchview,129.46,197.31,104.33,204.12,505.76,Single-ply,SBD,M
Boys,124.74+,11,Miguel Rodriguez,Gainesville,129,217.72,108.86,170.1,496.68,Single-ply,SBD,M
Boys,124.74+,12,Brandon Resendiz,Carrollton Turner,139.07,142.88,102.06,158.76,403.7,Single-ply,SBD,M
Boys,124.74+,DQ,Zane Madison,Van Alstyne,136.17,,,,,Single-ply,SBD,M
Boys,124.74+,DQ,Mike Grimes,Princeton,158.3,222.26,165.56,,,Single-ply,SBD,M
Boys,124.74+,DQ,Cruz Tobar,Sherman,155.76,183.7,,,,Single-ply,SBD,M
Boys,124.74+,DQ,Eric Deleon,Gainesville,137.62,249.48,158.76,,,Single-ply,SBD,M
